***, HONO aug-cc-pVTZ-F12 uks
    memory,250,m   
    print orbitals
    geometry={angstrom
    N 
    O 1 RO1N  
    O 1 RO2N 2 ANOO 
    H 3 RO2H 1 AHON 2 D}
    basis=cc-pVTZ
    RO1N=1.1829999999999998
    RO2N=1.3268589671739361
    RO2H=0.976
    ANOO=101.89026978056422
    AHON=96.64775934458316
    D=0.0
    hf;
    escf=energy
    ccsd(t);
    optg 

