
**** Reading OPER file ****
HFCO in valence coordinates. r1=r(C-H), r2=r(C-F), r3=r(C-O), beta1=(O-C-H), beta2=(O-C-F)
phi = angle (O-C-F) and (O-C-H).
Created on:
------ Host: "nathalie-supermachine" ----------Tue Jun 29 03:26:32 2021


**** Reading OPER file ****
HFCO in valence coordinates. r1=r(C-H), r2=r(C-F), r3=r(C-O), beta1=(O-C-H), beta2=(O-C-F)
phi = angle (O-C-F) and (O-C-H).
Created on:
------ Host: "nathalie-supermachine" ----------Tue Jun 29 03:26:32 2021


    zham   khtot   kzahl   nmulpot   nham
       1      71      68       0       1


--------------------------------------------------------------------------------
****** Source code version ******

Program Version :     8
Release         :     4
Revision        :    20

Heidelberg SVN repository no.: 1271
Checkin date: Wed, 30 Sep 2020, 13:30:07
Compiled: Fri, 18 Jun 2021, 06:22:58 ; Host: nathalie-supermachine
Program name: vminmax84
--------------------------------------------------------------------------------

  *** Memory allocated ***
 complex*16 :         268
 real*8     :        5649
 integer    :           6
 logical    :           3
 complex*8  :           2
 real*4     :           2
 Total   :          49760. Bytes ,       0.05 MB
--------------------------------------------------------------------------------


**** Reading OPER file ****
HFCO in valence coordinates. r1=r(C-H), r2=r(C-F), r3=r(C-O), beta1=(O-C-H), beta2=(O-C-F)
phi = angle (O-C-F) and (O-C-H).
Created on:
------ Host: "nathalie-supermachine" ----------Tue Jun 29 03:26:32 2021

