
 Primary working directories    : /tmp/antoaert/molpro.98KzPra8lf
 Secondary working directories  : /tmp/antoaert/molpro.98KzPra8lf
 Wavefunction directory         : /home/antoaert/wfu/
 Main file repository           : /tmp/antoaert/molpro.98KzPra8lf/

 id        : ulbac

 Nodes                nprocs
 nathalie-supermachine    1

 Using customized tuning parameters: mindgm=1; mindgv=20; mindgc=4; mindgr=1; noblas=0; minvec=7
 default implementation of scratch files=df  


 Variables initialized (945), CPU time= 0.00 sec
 ***,HFCO aug-cc-pVTZ-F12 uks
   memory,250,m
   print orbitals
   geometry={angstrom
   C
   O 1 RCO
   H 1 RCH 2 AHOC
   F 1 RCF 2 AFOC 3 DFHOC}
   basis=cc-pVTZ-f12
   RCO=1.5494970206753467
   RCH=1.1080022722417764
   RCF=1.2940026536830855
   AHOC=127.79994499607523
   AFOC=122.69994213128747
   DFHOC=179.99977081698015
   hf;
   escf=energy
                                                                                 !ccsd(t)-f12;
                                                                                 !eccsdta=energy(1)
                                                                                 !eccsdtb=energy(2)
   {table,RCH,RCO,RCF,AHOC,AFOC,DFHOC,escf,
   head,RCH,RCO,RCF,AHOC,AFOC,DFHOC,SCF
   save,hfco.tab
   title,HFCO,cc-pVTZ-f12
   }
 
 Commands  initialized (802), CPU time= 0.00 sec, 659 directives.
 Default parameters read. Elapsed time= 0.03 sec

 Checking input...
 Passed
1


                                         ***  PROGRAM SYSTEM MOLPRO  ***
                                       Copyright, TTI GmbH Stuttgart, 2015
                                    Version 2020.1 linked Oct  6 2020 12:04:11


 **********************************************************************************************************************************
 LABEL *   HFCO aug-cc-pVTZ-F12 uks                                                      
  64 bit serial version                                                                  DATE: 05-May-21          TIME: 09:26:39  
 **********************************************************************************************************************************

 SHA1:             8c27446f6450a7499e38f603e13c65f775101d37
 **********************************************************************************************************************************

 Memory per process:       250 MW
 Total memory per node:    250 MW

 GA preallocation disabled
 GA check disabled

 Variable memory set to 250.0 MW


 SETTING BASIS          =    CC-PVTZ-F12
 SETTING RCO            =         1.54949702                                  
 SETTING RCH            =         1.10800227                                  
 SETTING RCF            =         1.29400265                                  
 SETTING AHOC           =       127.79994500                                  
 SETTING AFOC           =       122.69994213                                  
 SETTING DFHOC          =       179.99977082                                  


 Recomputing integrals since basis changed


 Using spherical harmonics

 Library entry C      S cc-pVTZ-F12          selected for orbital group  1
 Library entry C      P cc-pVTZ-F12          selected for orbital group  1
 Library entry C      D cc-pVTZ-F12          selected for orbital group  1
 Library entry C      F cc-pVTZ-F12          selected for orbital group  1
 Library entry O      S cc-pVTZ-F12          selected for orbital group  2
 Library entry O      P cc-pVTZ-F12          selected for orbital group  2
 Library entry O      D cc-pVTZ-F12          selected for orbital group  2
 Library entry O      F cc-pVTZ-F12          selected for orbital group  2
 Library entry H      S cc-pVTZ-F12          selected for orbital group  3
 Library entry H      P cc-pVTZ-F12          selected for orbital group  3
 Library entry H      D cc-pVTZ-F12          selected for orbital group  3
 Library entry F      S cc-pVTZ-F12          selected for orbital group  4
 Library entry F      P cc-pVTZ-F12          selected for orbital group  4
 Library entry F      D cc-pVTZ-F12          selected for orbital group  4
 Library entry F      F cc-pVTZ-F12          selected for orbital group  4


 PROGRAM * SEWARD (Integral evaluation for generally contracted gaussian basis sets)     Author: Roland Lindh, 1990

 Geometry written to block  1 of record 700

 Orientation using atomic masses  
 Molecule type: Asymmetric top
 Rotational constants:       8.3048819      9.3073847     77.1037506 GHz  (calculated with average atomic masses)

 Point group  C1  



 ATOMIC COORDINATES

 NR  ATOM    CHARGE       X              Y              Z

   1  C       6.00   -0.000000880    0.886544168   -0.055527740
   2  O       8.00    0.000000203   -0.354475006    2.596601108
   3  H       1.00    0.000004025    2.928949833   -0.516683688
   4  F       9.00    0.000000172   -0.417356148   -2.124195909

 Bond lengths in Bohr (Angstrom)

 1-2  2.928125000  1-3  2.093820840  1-4  2.445310620
     ( 1.549497021)     ( 1.108002272)     ( 1.294002654)

 Bond angles

  2-1-3  127.79994500   2-1-4  122.69994213   3-1-4  109.50011287

 NUCLEAR CHARGE:                   24
 NUMBER OF PRIMITIVE AOS:         237
 NUMBER OF SYMMETRY AOS:          209
 NUMBER OF CONTRACTIONS:          177   (  177A   )
 NUMBER OF INNER CORE ORBITALS:     0   (    0A   )
 NUMBER OF OUTER CORE ORBITALS:     3   (    3A   )
 NUMBER OF VALENCE ORBITALS:       13   (   13A   )


 NUCLEAR REPULSION ENERGY   60.78407412


 Eigenvalues of metric

         1 0.209E-03 0.359E-03 0.430E-03 0.479E-03 0.514E-03 0.541E-03 0.589E-03 0.637E-03


 Contracted 2-electron integrals neglected if value below      1.0D-11
 AO integral compression algorithm  1   Integral accuracy      1.0D-11

     413.401 MB (compressed) written to integral file ( 33.5%)


 NUMBER OF SORTED TWO-ELECTRON INTEGRALS:  124086381.     BUFFER LENGTH:  32768
 NUMBER OF SEGMENTS:   8  SEGMENT LENGTH:   15999503      RECORD LENGTH: 524288

 Memory used in sort:      16.56 MW

 GLOBAL ERROR fehler on processor   0                                         
