The RMSE of term  [0]  was already below the target for new points sampling during the last procedure run, coefficients will be read in the given file.
The coefficients of term [0] will be read in the given file.
The RMSE of term  [1]  was already below the target for new points sampling during the last procedure run, coefficients will be read in the given file.
The coefficients of term [1] will be read in the given file.
The RMSE of term  [2]  was already below the target for new points sampling during the last procedure run, coefficients will be read in the given file.
The coefficients of term [2] will be read in the given file.
The RMSE of term  [0, 1]  was already below the target for new points sampling during the last procedure run, coefficients will be read in the given file.
The coefficients of term [0, 1] will be read in the given file.
The RMSE of term  [0, 2]  was already below the target for new points sampling during the last procedure run, coefficients will be read in the given file.
The coefficients of term [0, 2] will be read in the given file.
Working on term:[1, 2]
We found  53  points in the database.
[0.04115408808305615, 0.051324311527289675, 0.03731613596635158, -0.03228049419077404, -0.08289789827236209, -0.004468428985639736, 0.022635312175900358, -0.010561319998406123, -0.052624189803282546, 0.040179629069876065, 0.20960923670305254, -0.006355393038356271, 0.001956001111889117]
RMSE_FIT 4.583137441041343e-05 number of coeff 13 target number 45
[0.04076037184193696, 0.055075604660664225, 0.010059032391769416, -0.03325289239952106, -0.06918176182607837, -0.003986253303199797, -0.018547425546949513, -0.008437961334348928, -0.048026040935898545, 0.02665181130079153, 0.19370404025789217, -0.006132068011892332, 0.0014673412909338077, 0.05449103483243025]
RMSE_FIT 3.9053353068568326e-05 number of coeff 14 target number 45
RSME_NEWPOINTS 4.790157272744758e-05  TARGET: 6.8345029062482e-05
We had to compute  49 points for this term.
RSME_NEWPOINTS 0.00011394909907895706  TARGET: 6.8345029062482e-05
[0.04024180168780553, 0.05742530980343102, -0.0032661911075294995, -0.034309886249967045, -0.05861972810425183, -0.003812979486221497, -0.04758766372213674, -0.00584547305615048, -0.04355986902791595, 0.022369490193519585, 0.1356275459301265, -0.005643142490368258, 0.0010809620290044987, 0.0761717462216187]
RMSE_FIT 4.412098593469656e-05 number of coeff 14 target number 52
[0.0421704975921788, 0.0344056015582688, -0.0019086839649360345, -0.0348249967895802, -0.019096579107968633, -0.0026938199353662047, -0.043665346823443946, -0.00657479797708965, -0.040963192052105454, 0.015353273898457382, 0.04064235792696867, -0.010389449685345319, 0.0023415763983281753, 0.07818763273359369, 0.04922072546330049]
RMSE_FIT 2.6269545524984312e-05 number of coeff 15 target number 52
RSME_NEWPOINTS 5.835566655991767e-05  TARGET: 6.8345029062482e-05
We had to compute  59 points for this term.
RSME_NEWPOINTS 5.749844136374779e-05  TARGET: 6.8345029062482e-05
We had to compute  61 points for this term.
RSME_NEWPOINTS 9.434819331462299e-05  TARGET: 6.8345029062482e-05
[0.04203925759881947, 0.03624277021440526, -0.0028238672309716367, -0.03409018932288469, -0.012736708818562554, -0.0027580559143690533, -0.018386585968891877, -0.007311487095689726, -0.041979075890769754, 0.0157024199576689, 0.004412569813946317, -0.010670482986631896, 0.0025168822008245603, 0.0564102605063582, 0.04110906578784978]
RMSE_FIT 3.633034253987657e-05 number of coeff 15 target number 65
RSME_NEWPOINTS 3.504663688648902e-05  TARGET: 6.8345029062482e-05
We had to compute  71 points for this term.
RSME_NEWPOINTS 3.470401102658501e-05  TARGET: 6.8345029062482e-05
We had to compute  75 points for this term.
RSME_NEWPOINTS 3.474588379695123e-05  TARGET: 6.8345029062482e-05
We had to compute  79 points for this term.
RSME_NEWPOINTS 3.5887056065064995e-05  TARGET: 6.8345029062482e-05
We had to compute  83 points for this term.
RSME_NEWPOINTS 3.530732055131666e-05  TARGET: 6.8345029062482e-05
We had to compute  87 points for this term.
Working on term:[0, 1, 2]
We found  0  points in the database.
RSME_NEWPOINTS 0.052551954436978486  TARGET: 0.000136690058124964
[-0.04101242786350186]
RMSE_FIT 0.00025781678167159893 number of coeff 1 target number 5
[-0.029694268480057143, -0.23858280463197154]
RMSE_FIT 8.22961049344419e-05 number of coeff 2 target number 5
RSME_NEWPOINTS 0.0006660825611610177  TARGET: 0.000136690058124964
[-0.025202425299419486, -0.15551437893100464]
RMSE_FIT 0.0004507283479509219 number of coeff 2 target number 9
[-0.027581734256762552, -0.10551503456977353, 0.018166526961571904]
RMSE_FIT 0.0001120260982369055 number of coeff 3 target number 9
[-0.028552273464773705, -0.17504910762456696, 0.01863440278968271, 0.39930925337895296]
RMSE_FIT 8.168996041727533e-05 number of coeff 4 target number 9
RSME_NEWPOINTS 0.00018399176260532464  TARGET: 0.000136690058124964
[-0.032350436791068596, -0.1846657230136999, 0.020064232931136287, 0.7674906519363404]
RMSE_FIT 0.00014955661265133956 number of coeff 4 target number 12
[-0.03451649075290669, -0.22813168843939674, 0.018458142949718554, 0.7897500880164758, 0.006857766204819966]
RMSE_FIT 8.518574764781175e-05 number of coeff 5 target number 12
RSME_NEWPOINTS 0.000582294304638574  TARGET: 0.000136690058124964
[-0.03672521768870573, 0.002321461306840606, 0.018466115640341306, 0.09036807311723236, 0.005631934674973163]
RMSE_FIT 0.00017968598752061475 number of coeff 5 target number 16
[-0.034133200395788134, 0.014761993580672036, 0.029175814310087193, -0.19914991088287334, 0.006792114345308581, -0.03866868358097191]
RMSE_FIT 0.0001143934847963274 number of coeff 6 target number 16
[-0.03378671293726027, 0.025952979711620576, 0.03248090571374149, 0.20305980993873005, 0.004292780671825406, -0.04470221786887356, -0.143299375813096]
RMSE_FIT 7.502952883158977e-05 number of coeff 7 target number 16
RSME_NEWPOINTS 0.00023275059259788623  TARGET: 0.000136690058124964
[-0.03382488773213886, 0.007100885890035027, 0.02929803666511096, 0.1410391308566554, 0.005115954712891937, -0.03687293509792944, -0.1126423913256131]
RMSE_FIT 9.872015661819991e-05 number of coeff 7 target number 19
[-0.037269602079694174, 0.032362137200633544, 0.020129300304464866, 0.17831813175652153, 0.0026487836171087604, -0.008199446092547321, -0.14775865218643616, 0.011409062350088097]
RMSE_FIT 6.493223941813734e-05 number of coeff 8 target number 19
RSME_NEWPOINTS 0.00017201175961802995  TARGET: 0.000136690058124964
[-0.038235650153175434, 0.0009209887501860917, 0.01934769446330683, 0.17162737197105038, 0.0054576235372750005, -0.002858774340451708, -0.09733248014730443, 0.010225696138459051]
RMSE_FIT 9.644760424421797e-05 number of coeff 8 target number 23
[-0.035731875106620174, -0.013087342971107798, 0.02946797029604756, 0.07673789300578601, 0.005993206884864458, -0.01837511055164049, -0.076694643966582, 0.007215043060840528, -0.014258125189321373]
RMSE_FIT 5.9728725032511616e-05 number of coeff 9 target number 23
RSME_NEWPOINTS 6.290058728881991e-05  TARGET: 0.000136690058124964
We had to compute  29 points for this term.
RSME_NEWPOINTS 6.195799716518548e-05  TARGET: 0.000136690058124964
We had to compute  30 points for this term.
