[0] 1.25000000 1.85575887 1.77668781 0.17885575 
[0] 2.38333333 1.85575887 1.77668781 0.06085058 
[0] 1.81666667 1.85575887 1.77668781 0.00047727 
[0] 2.95000000 1.85575887 1.77668781 0.14117055 
[0] 1.53333333 1.85575887 1.77668781 0.02529868 
[0] 2.10000000 1.85575887 1.77668781 0.02283881 
[0] 1.39166667 1.85575887 1.77668781 0.07719633 
[0] 1.62777778 1.85575887 1.77668781 0.00836539 
[0] 2.10000000 1.85575887 1.77668781 0.02283881 
[0] 1.43888889 1.85575887 1.77668781 0.05553525 
[0] 2.66666667 1.85575887 1.77668781 0.10193596 
[0] 1.53333333 1.85575887 1.77668781 0.02529868 
[0] 1.34444444 1.85575887 1.77668781 0.10428166 
[0] 1.39166667 1.85575887 1.77668781 0.07719633 
[0] 1.29722222 1.85575887 1.77668781 0.13777657 
[0] 2.24166667 1.85575887 1.77668781 0.04093602 
[0] 2.52500000 1.85575887 1.77668781 0.08142492 
[0] 2.80833333 1.85575887 1.77668781 0.12193963 
[0] 2.52500000 1.85575887 1.77668781 0.08142492 
[0] 1.27361111 1.85575887 1.77668781 0.15728625 
[0] 2.80833333 1.85575887 1.77668781 0.12193963 
[0] 2.24166667 1.85575887 1.77668781 0.04093602 
[0] 1.32083333 1.85575887 1.77668781 0.12015938 
[0] 1.95833333 1.85575887 1.77668781 0.00839030 
[0] 1.36805556 1.85575887 1.77668781 0.09000340 
[0] 1.48611111 1.85575887 1.77668781 0.03846927 
[0] 2.45416667 1.85575887 1.77668781 0.07110851 
[0] 2.73750000 1.85575887 1.77668781 0.11202111 
[0] 2.59583333 1.85575887 1.77668781 0.09172125 
[0] 2.31250000 1.85575887 1.77668781 0.05075096 
[0] 2.45416667 1.85575887 1.77668781 0.07110851 
[0] 2.59583333 1.85575887 1.77668781 0.09172125 
[0] 2.73750000 1.85575887 1.77668781 0.11202111 
[0] 2.87916667 1.85575887 1.77668781 0.13166319 
[0] 2.17083333 1.85575887 1.77668781 0.03156515 
[0] 1.41527778 1.85575887 1.77668781 0.06574290 
[0] 1.26180556 1.85575887 1.77668781 0.16780247 
[0] 1.72222222 1.85575887 1.77668781 0.00099426 
[0] 2.02916667 1.85575887 1.77668781 0.01500863 
[0] 1.28541667 1.85575887 1.77668781 0.14728475 
[1] 1.77670514 1.60000000 1.77668781 0.00608313 
[1] 1.77670514 0.80000000 1.77668781 0.13104160 
[1] 1.77670514 3.20000000 1.77668781 0.05211948 
[1] 1.77670514 2.40000000 1.77668781 0.01995579 
[1] 1.77670514 1.40000000 1.77668781 0.02026347 
[1] 1.77670514 1.00000000 1.77668781 0.07857138 
[1] 1.77670514 1.20000000 1.77668781 0.04383059 
[1] 1.77670514 1.20000000 1.77668781 0.04383059 
[1] 1.77670514 1.40000000 1.77668781 0.02026347 
[1] 1.77670514 2.80000000 1.77668781 0.04360989 
[1] 1.77670514 1.00000000 1.77668781 0.07857138 
[1] 1.77670514 2.00000000 1.77668781 0.00170642 
[1] 1.77670514 2.60000000 1.77668781 0.03243720 
[1] 1.77670514 1.10000000 1.77668781 0.05959758 
[1] 1.77670514 0.90000000 1.77668781 0.10171850 
[1] 1.77670514 0.85000000 1.77668781 0.11541864 
[1] 1.77670514 2.20000000 1.77668781 0.00891093 
[1] 1.77670514 0.95000000 1.77668781 0.08953141 
[1] 1.77670514 2.20000000 1.77668781 0.00891093 
[1] 1.77670514 1.30000000 1.77668781 0.03080084 
[1] 1.77670514 0.85000000 1.77668781 0.11541864 
[1] 1.77670514 0.95000000 1.77668781 0.08953141 
[1] 1.77670514 1.05000000 1.77668781 0.06863945 
[1] 1.77670514 3.00000000 1.77668781 0.05079645 
[1] 1.77670514 1.80000000 1.77668781 0.00027315 
[1] 1.77670514 1.50000000 1.77668781 0.01206532 
[1] 1.77670514 2.50000000 1.77668781 0.02618354 
[1] 1.77670514 1.15000000 1.77668781 0.05135014 
[1] 1.77670514 2.50000000 1.77668781 0.02618354 
[1] 1.77670514 2.70000000 1.77668781 0.03836340 
[1] 1.77670514 1.15000000 1.77668781 0.05135014 
[1] 1.77670514 0.82500000 1.77668781 0.12295803 
[1] 1.77670514 1.25000000 1.77668781 0.03699210 
[1] 1.77670514 2.30000000 1.77668781 0.01409307 
[1] 1.77670514 0.87500000 1.77668781 0.10835725 
[1] 1.77670514 2.10000000 1.77668781 0.00469649 
[1] 1.77670514 2.90000000 1.77668781 0.04784742 
[1] 1.77670514 0.92500000 1.77668781 0.09545610 
[1] 1.77670514 1.70000000 1.77668781 0.00219606 
[2] 1.77670514 1.85575887 2.38333333 0.06085054 
[2] 1.77670514 1.85575887 1.81666667 0.00047727 
[2] 1.77670514 1.85575887 1.25000000 0.17885580 
[2] 1.77670514 1.85575887 2.95000000 0.14117047 
[2] 1.77670514 1.85575887 1.39166667 0.07719636 
[2] 1.77670514 1.85575887 1.53333333 0.02529870 
[2] 1.77670514 1.85575887 2.10000000 0.02283879 
[2] 1.77670514 1.85575887 1.62777778 0.00836540 
[2] 1.77670514 1.85575887 1.43888889 0.05553527 
[2] 1.77670514 1.85575887 2.10000000 0.02283879 
[2] 1.77670514 1.85575887 2.66666667 0.10193590 
[2] 1.77670514 1.85575887 1.34444444 0.10428170 
[2] 1.77670514 1.85575887 1.29722222 0.13777661 
[2] 1.77670514 1.85575887 1.39166667 0.07719636 
[2] 1.77670514 1.85575887 1.53333333 0.02529870 
[2] 1.77670514 1.85575887 2.52500000 0.08142487 
[2] 1.77670514 1.85575887 2.24166667 0.04093599 
[2] 1.77670514 1.85575887 2.80833333 0.12193955 
[2] 1.77670514 1.85575887 2.52500000 0.08142487 
[2] 1.77670514 1.85575887 2.24166667 0.04093599 
[2] 1.77670514 1.85575887 2.80833333 0.12193955 
[2] 1.77670514 1.85575887 1.27361111 0.15728630 
[2] 1.77670514 1.85575887 1.48611111 0.03846929 
[2] 1.77670514 1.85575887 1.32083333 0.12015942 
[2] 1.77670514 1.85575887 1.95833333 0.00839029 
[2] 1.77670514 1.85575887 1.36805556 0.09000343 
[2] 1.77670514 1.85575887 2.45416667 0.07110846 
[2] 1.77670514 1.85575887 2.59583333 0.09172119 
[2] 1.77670514 1.85575887 2.73750000 0.11202104 
[2] 1.77670514 1.85575887 2.31250000 0.05075092 
[2] 1.77670514 1.85575887 2.59583333 0.09172119 
[2] 1.77670514 1.85575887 2.45416667 0.07110846 
[2] 1.77670514 1.85575887 2.73750000 0.11202104 
[2] 1.77670514 1.85575887 1.26180556 0.16780251 
[2] 1.77670514 1.85575887 2.17083333 0.03156512 
[2] 1.77670514 1.85575887 1.41527778 0.06574292 
[2] 1.77670514 1.85575887 2.87916667 0.13166312 
[2] 1.77670514 1.85575887 1.72222222 0.00099426 
[2] 1.77670514 1.85575887 2.02916667 0.01500861 
[2] 1.77670514 1.85575887 1.28541667 0.14728479 
[0,1] 1.47841921 2.39826567 1.77668781 0.05709634 
[0,1] 2.54841685 1.42086389 1.77668781 0.09129239 
[0,1] 2.57222222 1.73333333 1.77668781 0.08709094 
[0,1] 1.81666667 1.55000000 1.77668781 0.00884615 
[0,1] 2.10000000 2.65000000 1.77668781 0.06359446 
[0,1] 1.75894536 1.88137652 1.77668781 0.00014429 
[0,1] 2.10000000 2.65000000 1.77668781 0.06359446 
[0,1] 1.85473654 2.47054428 1.77668781 0.02713560 
[0,1] 1.99640320 1.78304428 1.77668781 0.01177056 
[0,1] 1.85473654 2.05804428 1.77668781 0.00542366 
[0,1] 2.53280562 1.14028796 1.77668781 0.10962759 
[0,1] 1.53583236 2.01297355 1.77668781 0.02570353 
[0,1] 1.87657885 1.35268143 1.77668781 0.02562099 
[0,1] 1.36441517 1.62172714 1.77668781 0.10032606 
[0,1] 2.21494002 1.40130272 1.77668781 0.04974968 
[0,1] 1.32613974 2.42858856 1.77668781 0.13240900 
[0,1] 1.45969263 1.82188499 1.77668781 0.04791033 
[0,1] 1.53583236 2.01297355 1.77668781 0.02570353 
[0,1] 1.36420961 2.11163283 1.77668781 0.09470334 
[0,1] 2.32420843 1.21043195 1.77668781 0.07847561 
[0,1] 2.81613895 1.55278796 1.77668781 0.12263698 
[0,1] 2.66745394 1.70061337 1.77668781 0.10062717 
[0,1] 2.74681200 1.97877969 1.77668781 0.11690144 
[0,1] 1.88385962 1.11756048 1.77668781 0.05555609 
[0,1] 2.10000000 2.65000000 1.77668781 0.06359446 
[0,1] 1.46250000 1.00000000 1.77668781 0.14060283 
[0,1] 1.85473654 2.47054428 1.77668781 0.02713560 
[0,1] 2.70473654 2.47054428 1.77668781 0.14073394 
[0,1] 1.67500000 2.65000000 1.77668781 0.03738053 
[0,1] 2.04820160 2.21652214 1.77668781 0.02894486 
[0,1] 1.55236827 2.56027214 1.77668781 0.04742515 
[0,1] 2.24593459 2.10624100 1.77668781 0.04907710 
[0,1] 1.92556987 2.12679428 1.77668781 0.01254544 
[0,1] 1.73741121 2.09065497 1.77668781 0.00463318 
[0,1] 2.31640281 1.07014398 1.77668781 0.09317654 
[0,1] 1.41247040 2.05105166 1.77668781 0.06825461 
[0,1] 1.58778493 1.97589714 1.77668781 0.01475562 
[0,1] 1.49370560 2.16407749 1.77668781 0.04120109 
[0,1] 2.53280562 1.14028796 1.77668781 0.10962759 
[0,1] 1.69018899 2.31982164 1.77668781 0.01687566 
[0,1] 1.36034746 1.97229312 1.77668781 0.09432492 
[0,1] 2.67908266 1.93837292 1.77668781 0.10583734 
[0,1] 1.66532836 1.85916820 1.77668781 0.00445001 
[0,1] 1.34432905 1.76043495 1.77668781 0.10639445 
[0,1] 1.94627987 1.08377602 1.77668781 0.06256341 
[0,1] 2.02930736 1.51234281 1.77668781 0.02309693 
[0,1] 1.82207585 1.58780238 1.77668781 0.00688832 
[0,1] 2.85969422 2.00029097 1.77668781 0.13352023 
[0,1] 1.88750000 1.00000000 1.77668781 0.07604779 
[0,1] 2.05596922 2.00535985 1.77668781 0.02073228 
[0,1] 1.69497073 1.20922714 1.77668781 0.04737188 
[0,1] 1.34758898 2.10374692 1.77668781 0.10445094 
[0,1] 1.54382716 1.11712963 1.77668781 0.08844898 
[0,2] 2.38333333 1.85575887 2.38333333 0.12040800 
[0,2] 2.19444444 1.85575887 1.62777778 0.04324081 
[0,2] 1.62777778 1.85575887 2.19444444 0.04324081 
[0,2] 1.47841921 1.85575887 2.69063735 0.14758488 
[0,2] 1.81666667 1.85575887 1.81666667 0.00094868 
[0,2] 1.81666667 1.85575887 2.66666667 0.10227328 
[0,2] 1.62777778 1.85575887 2.02916667 0.02351950 
[0,2] 1.43888889 1.85575887 1.63958333 0.06232164 
[0,2] 1.67500000 1.85575887 2.95000000 0.14534322 
[0,2] 1.37592593 1.85575887 1.79305556 0.08568815 
[0,2] 2.19444444 1.85575887 1.61597222 0.04479014 
[0,2] 1.86388889 1.85575887 1.35625000 0.09926697 
[0,2] 2.28888889 1.85575887 1.58645833 0.06224628 
[0,2] 2.16296296 1.85575887 1.77534722 0.03056215 
[0,2] 1.83765432 1.85575887 2.59976852 0.09317939 
[0,2] 1.74583333 1.85575887 1.28984375 0.14389958 
[0,2] 2.57222222 1.85575887 1.80879630 0.08850593 
[0,2] 2.32037037 1.85575887 2.57615741 0.13921784 
[0,2] 1.62777778 1.85575887 1.74583333 0.00865805 
[0,2] 1.37592593 1.85575887 2.07638889 0.10623729 
[0,2] 1.37592593 1.85575887 1.81666667 0.08612521 
[0,2] 2.85555556 1.85575887 1.92685185 0.13376903 
[0,2] 1.72222222 1.85575887 1.43593750 0.05766220 
[0,2] 1.97407407 1.85575887 1.66909722 0.01396142 
[0,2] 1.81666667 1.85575887 1.85208333 0.00209575 
[0,2] 1.90061728 1.85575887 2.14328704 0.03208058 
[0,2] 2.18395062 1.85575887 2.40694444 0.09659370 
[0,2] 1.31296296 1.85575887 1.97013889 0.13565087 
[0,2] 2.51625514 1.85575887 2.15640432 0.10886846 
[0,2] 2.52500000 1.85575887 1.46250000 0.12897410 
[1,2] 1.77670514 1.73333333 2.57222222 0.08709087 
[1,2] 1.77670514 1.22170100 2.69063735 0.12181730 
[1,2] 1.77670514 2.28333333 2.00555556 0.02802472 
[1,2] 1.77670514 1.55000000 1.81666667 0.00884597 
[1,2] 1.77670514 1.24444444 2.25740741 0.06759582 
[1,2] 1.77670514 2.65000000 2.10000000 0.06359464 
[1,2] 1.77670514 1.82500000 2.95000000 0.14052085 
[1,2] 1.77670514 1.15277778 1.59629630 0.07009189 
[1,2] 1.77670514 1.11085050 1.97031868 0.05939101 
[1,2] 1.77670514 1.87592593 1.52283951 0.02780880 
[1,2] 1.77670514 1.42777778 2.16296296 0.04200149 
[1,2] 1.77670514 1.00000000 1.67500000 0.08756992 
[1,2] 1.77670514 1.56657980 2.22467413 0.04214976 
[1,2] 1.77670514 1.35529495 2.41105942 0.07712545 
[1,2] 1.77670514 2.65000000 1.67500000 0.03738087 
[1,2] 1.77670514 1.18842593 1.36543210 0.14966116 
[1,2] 1.77670514 1.82500000 2.95000000 0.14052085 
[1,2] 1.77670514 1.36666667 2.76111111 0.12183482 
[1,2] 1.77670514 2.19166667 2.76111111 0.12930549 
[1,2] 1.77670514 1.51944444 2.82407407 0.12442925 
[1,2] 1.77670514 2.19166667 2.76111111 0.12930549 
[1,2] 1.77670514 1.82500000 2.95000000 0.14052085 
[1,2] 1.77670514 1.72960050 2.82031868 0.12189275 
[1,2] 1.77670514 1.56527778 1.31296296 0.13826931 
[1,2] 1.77670514 1.98117284 1.87263374 0.00419641 
[1,2] 1.77670514 2.49891975 1.40390947 0.09189698 
[1,2] 1.77670514 2.12037037 2.21543210 0.04547939 
[1,2] 1.77670514 2.43611111 2.72962963 0.14169952 
[1,2] 1.77670514 2.58888889 1.51759259 0.05687721 
[1,2] 1.77670514 2.46666667 2.19444444 0.06391137 
[1,2] 1.77670514 1.88950617 1.36893004 0.08921650 
[1,2] 1.77670514 1.35308642 1.35144033 0.13328974 
[1,2] 1.77670514 2.17638889 1.37592593 0.09024698 
[1,2] 1.77670514 1.26651235 1.46687243 0.08782327 
[1,2] 1.77670514 1.77860082 1.72338820 0.00160264 
[1,2] 1.77670514 2.52777778 1.92685185 0.03605922 
[1,2] 1.77670514 1.59102366 1.35960219 0.10515464 
[1,2] 1.77670514 1.49652778 1.31296296 0.14401214 
[1,2] 1.77670514 1.95401235 2.57921811 0.09181441 
[1,2] 1.77670514 1.21280853 2.10651944 0.05556629 
[1,2] 1.77670514 1.07638889 1.42314815 0.14042135 
[1,2] 1.77670514 1.00000000 1.67500000 0.08756992 
[1,2] 1.77670514 2.28031550 1.73893461 0.01309825 
[1,2] 1.77670514 1.29429001 2.25343302 0.06257363 
[1,2] 1.77670514 1.61846708 1.58113855 0.02210703 
[1,2] 1.77670514 1.24274691 1.52633745 0.07195363 
[1,2] 1.77670514 1.71324588 1.29663923 0.14214492 
[1,2] 1.77670514 2.26975309 2.30637860 0.06679056 
[1,2] 1.77670514 1.30234366 1.86382971 0.03055053 
[1,2] 1.77670514 2.10254630 1.29197531 0.14376146 
[1,2] 1.77670514 1.74565006 2.40040578 0.06251052 
[1,2] 1.77670514 1.07638889 1.84814815 0.06210080 
[1,2] 1.77670514 1.00000000 1.67500000 0.08756992 
[1,2] 1.77670514 1.17006633 2.51799525 0.10511118 
[1,2] 1.77670514 1.00000000 1.46250000 0.14060164 
[1,2] 1.77670514 1.03819444 1.54907407 0.10314232 
[1,2] 1.77670514 1.78639080 2.25349220 0.04205517 
[1,2] 1.77670514 1.31751526 2.79275240 0.12838182 
[1,2] 1.77670514 1.61197912 2.46644942 0.07331514 
[1,2] 1.77670514 1.11373457 1.47474280 0.11092730 
[1,2] 1.77670514 1.37100673 2.56804956 0.09653476 
[1,2] 1.77670514 2.58888889 2.27314815 0.08415867 
[1,2] 1.77670514 1.13504684 2.10791723 0.06516770 
[1,2] 1.77670514 1.80152391 2.33408396 0.05325369 
[1,2] 1.77670514 1.13757389 2.23292872 0.07646012 
[1,2] 1.77670514 1.27142798 2.07587939 0.04648897 
[1,2] 1.77670514 2.14583333 1.43888889 0.05957560 
[1,2] 1.77670514 2.08632545 1.31840421 0.12344013 
[1,2] 1.77670514 2.29012346 2.13847737 0.04441844 
[1,2] 1.77670514 2.12263374 2.61652949 0.10445929 
[1,2] 1.77670514 1.00000000 2.31250000 0.10196885 
[1,2] 1.77670514 2.57445988 1.53945473 0.05094043 
[1,2] 1.77670514 1.80571737 1.88454312 0.00327324 
[1,2] 1.77670514 1.97098765 2.25041152 0.04455401 
[1,2] 1.77670514 2.65000000 1.46250000 0.07657687 
[1,2] 1.77670514 2.42592593 2.04228395 0.04117857 
[1,2] 1.77670514 1.90468964 2.69542753 0.10720750 
[1,2] 1.77670514 1.37071739 2.69425366 0.11301523 
[1,2] 1.77670514 2.02379973 1.51195702 0.03193152 
[1,2] 1.77670514 1.95665295 1.44044353 0.05482780 
[1,2] 1.77670514 1.33153924 2.83593315 0.13303813 
[1,2] 1.77670514 2.27314815 2.64043210 0.11694786 
[1,2] 1.77670514 1.68794010 1.30622619 0.13584384 
[0,1,2] 2.10000000 2.65000000 2.10000000 0.08954576 
[0,1,2] 2.10000000 1.00000000 2.10000000 0.09341371 
[0,1,2] 1.67500000 1.41250000 2.10000000 0.04138345 
[0,1,2] 1.88750000 1.41250000 1.88750000 0.02213519 
[0,1,2] 1.46250000 1.61875000 2.52500000 0.12977704 
[0,1,2] 1.88750000 1.41250000 1.88750000 0.02213519 
[0,1,2] 1.88750000 1.41250000 1.88750000 0.02213519 
[0,1,2] 1.88750000 1.41250000 1.88750000 0.02213519 
[0,1,2] 1.40937500 1.51562500 1.62187500 0.09552887 
[0,1,2] 1.51562500 2.13437500 1.51562500 0.06109035 
[0,1,2] 1.40937500 2.34062500 1.62187500 0.08707595 
[0,1,2] 2.07343750 2.23750000 2.33906250 0.08980480 
[0,1,2] 1.62187500 1.72187500 1.62187500 0.02117150 
[0,1,2] 1.60859375 2.43085937 2.20625000 0.07306977 
[0,1,2] 1.82275391 1.34482422 2.60634766 0.10314249 
[0,1,2] 1.88750000 1.00000000 1.67500000 0.08455638 
[0,1,2] 1.67500000 1.10312500 1.46250000 0.12677391 
[0,1,2] 1.78125000 1.41250000 2.84375000 0.13035539 
[0,1,2] 1.78789062 1.76054687 1.73476563 0.00151546 
[0,1,2] 1.40937500 1.92812500 1.62187500 0.07659759 
[0,1,2] 1.49736328 1.70576172 1.64345703 0.04562432 
[0,1,2] 1.63017578 1.71865234 1.45751953 0.06011201 
[0,1,2] 1.46250000 1.41250000 1.46250000 0.12448683 
[0,1,2] 1.39111328 1.51240234 1.96220703 0.09913795 
[0,1,2] 1.33798828 1.77021484 1.59033203 0.12433584 
[0,1,2] 1.55048828 1.28037109 1.74970703 0.06133109 
[0,1,2] 1.62187500 2.23750000 1.72812500 0.01865789 
[0,1,2] 2.12158203 2.01513672 2.65283203 0.12935645 
[0,1,2] 1.54218750 2.21171875 2.31250000 0.08700991 
[0,1,2] 2.61713867 2.02399902 2.19462891 0.13366988 
[0,1,2] 1.92153320 2.31726074 2.45527344 0.09785126 
[0,1,2] 1.67500000 1.82500000 2.95000000 0.14470434 
[0,1,2] 2.10000000 2.65000000 1.67500000 0.06621433 
[0,1,2] 1.45751953 2.01513672 2.36064453 0.11034304 
[0,1,2] 2.33906250 1.27714844 1.48906250 0.11615736 
[0,1,2] 2.21953125 1.69609375 2.32578125 0.08844171 
[0,1,2] 2.40339355 1.66870117 2.26975098 0.10600372 
[0,1,2] 1.41145020 1.63405762 2.06223145 0.09080516 
[0,1,2] 1.39650879 1.88864746 2.30627441 0.12591898 
[0,1,2] 2.72276611 2.03910522 1.81943359 0.11631244 
[0,1,2] 1.86674805 2.37849121 2.43369141 0.09560592 
[0,1,2] 1.49113770 1.78874512 2.03566895 0.05318149 
[0,1,2] 2.10332031 1.82016602 2.36728516 0.08049934 
[0,1,2] 1.87504883 1.89187012 2.14316406 0.03115685 
[0,1,2] 2.16142578 1.75812988 2.34653320 0.08397596 
[0,1,2] 2.60302734 1.91362305 2.07675781 0.11345952 
[0,1,2] 1.88168945 1.84030762 1.97714844 0.01288395 
[0,1,2] 2.28095703 2.21171875 1.38779297 0.13809337 
[0,1,2] 2.82756348 1.64050293 1.85471191 0.12428677 
[0,1,2] 1.44667664 2.37884369 2.16401978 0.10423672 
[0,1,2] 2.68639832 1.92726898 1.98555298 0.11668573 
[0,1,2] 1.47619629 1.99177246 2.22658691 0.08361567 
[0,1,2] 1.89600830 2.34122925 2.62045898 0.12242617 
[0,1,2] 1.46571655 1.80264282 1.96542358 0.05489595 
[0,1,2] 1.78125000 1.82500000 2.84375000 0.12619479 
[0,1,2] 1.44257813 2.37285156 2.44531250 0.14818343 
[0,1,2] 1.95940552 1.88471985 2.02135010 0.02290179 
[0,1,2] 1.89683838 1.88804321 2.14855957 0.03298053 
[0,1,2] 1.47323914 2.22415619 2.08433228 0.07496288 
[0,1,2] 2.14814453 2.16015625 1.46748047 0.08214534 
[0,1,2] 2.40629883 2.27496338 2.13029785 0.10874780 
[0,1,2] 2.36790771 2.24132690 2.33117676 0.12788208 
[0,1,2] 1.45129395 1.87897949 2.38098145 0.11234439 
[0,1,2] 2.06876831 1.76256104 1.94487915 0.02602375 
[0,1,2] 2.06119385 1.12608643 2.67462158 0.13979176 
[0,1,2] 1.80303955 2.00164185 1.95100098 0.01046707 
[0,1,2] 1.88833008 2.50175781 1.42846680 0.08698387 
[0,1,2] 1.87836914 1.78471680 1.36704102 0.09463498 
[0,1,2] 2.55322266 2.33377686 2.11535645 0.13256134 
[0,1,2] 1.74859161 1.38183441 1.68280792 0.02776408 
[0,1,2] 2.17968750 1.05961914 1.46250000 0.13750415 
[0,1,2] 1.74451904 1.40162354 2.31395264 0.06248178 
[0,1,2] 1.77770271 1.81486626 2.79807625 0.11973598 
[0,1,2] 1.99748535 1.58249512 1.40979004 0.08800384 
[0,1,2] 1.43593750 2.41796875 2.41875000 0.14983927 
[0,1,2] 2.22394104 1.89035950 2.70932922 0.14596948 
[0,1,2] 1.80615234 1.49306641 1.87255859 0.01373383 
[0,1,2] 1.89938049 2.41832123 2.58455811 0.12298481 
[0,1,2] 1.79453125 1.01289063 2.48515625 0.11731765 
[0,1,2] 2.21040039 2.16660156 1.40522461 0.11674686 
[0,1,2] 2.04645348 1.32002487 1.88286324 0.04028615 
[0,1,2] 1.52807617 1.82983398 1.42846680 0.08668869 
[0,1,2] 1.98032608 2.04080467 2.50336609 0.09386092 
[0,1,2] 1.71514206 1.23527908 2.42340622 0.09024857 
[0,1,2] 1.65590820 2.19721680 1.45668945 0.05843120 
[0,1,2] 2.10000000 1.00000000 2.10000000 0.09341371 
[0,1,2] 1.87393990 1.31862755 1.72800179 0.03086379 
[0,1,2] 2.15852051 2.45865479 2.21538086 0.09817251 
[0,1,2] 1.58094177 2.48498993 2.12791138 0.06990054 
[0,1,2] 1.72978516 1.06123047 1.84931641 0.06747052 
[0,1,2] 2.30336914 1.78471680 1.57954102 0.06513015 
[0,1,2] 2.44535141 2.08709259 1.67781448 0.08081700 
[0,1,2] 1.94166260 1.18087158 2.51524658 0.10762914 
[0,1,2] 1.39814301 2.11481247 1.67712708 0.07908580 
[0,1,2] 2.64405136 2.23729858 2.10504532 0.13800418 
[0,1,2] 1.82662544 1.89810143 1.33288460 0.11241007 
[0,1,2] 1.39609375 2.12148437 2.20625000 0.11858703 
[0,1,2] 2.04962463 1.28127747 2.65620422 0.12687510 
[0,1,2] 1.81735840 1.99539795 1.79204102 0.00237093 
[0,1,2] 2.30066166 2.29130011 2.30161819 0.11746130 
[0,1,2] 1.88750000 2.65000000 2.31250000 0.09851058 
[0,1,2] 1.67261353 1.24310913 1.39287720 0.13273171 
[0,1,2] 2.79202576 1.58309937 2.06145325 0.13567052 
[0,1,2] 1.41888199 2.10450249 2.17429199 0.10260267 
[0,1,2] 1.74703522 1.98527679 1.64950104 0.00702509 
[0,1,2] 1.67624512 1.96377563 1.71837158 0.00518211 
[0,1,2] 2.10000000 1.00000000 2.52500000 0.13506397 
[0,1,2] 1.80022182 1.89494486 1.94963913 0.00817215 
[0,1,2] 1.97637916 1.89655540 1.75176439 0.01050359 
[0,1,2] 2.40438251 1.73816767 2.11140709 0.08604265 
[0,1,2] 2.30062174 1.81626102 1.60934479 0.05993406 
[0,1,2] 1.46250000 2.65000000 1.78125000 0.07669373 
[0,1,2] 2.47187500 1.12890625 1.62187500 0.11613695 
[0,1,2] 2.55065784 2.48938961 2.00719013 0.13208658 
[0,1,2] 2.31250000 2.65000000 2.10000000 0.11907270 
[0,1,2] 1.81735840 1.99539795 1.79204102 0.00237093 
[0,1,2] 1.56397705 2.17103271 1.37969971 0.10367706 
[0,1,2] 2.44214783 2.55689545 1.53461304 0.13196106 
[0,1,2] 1.77941475 1.81330528 1.37781258 0.08519321 
[0,1,2] 1.90796661 2.11320114 2.40951538 0.07783400 
[0,1,2] 1.78125000 2.62421875 1.48906250 0.06677009 
[0,1,2] 1.33269653 1.56215210 1.58088989 0.14253522 
[0,1,2] 2.95000000 2.03125000 1.88750000 0.14996302 
[0,1,2] 2.25740032 2.21614676 1.53573494 0.08060130 
[0,1,2] 2.44535141 2.08709259 1.67781448 0.08081700 
[0,1,2] 2.63571167 2.29440002 1.77875977 0.11767463 
[0,1,2] 2.87031250 1.05156250 1.88750000 0.15669531 
[0,1,2] 2.35898437 1.43244019 1.39360352 0.14579934 
[0,1,2] 1.38818207 2.31783981 2.08884583 0.11656245 
[0,1,2] 1.53699951 1.83990479 1.55194092 0.04551168 
[0,1,2] 1.83520508 2.43730469 1.44174805 0.07436095 
[0,1,2] 1.81735840 1.99539795 1.79204102 0.00237093 
[0,1,2] 2.31250000 2.65000000 1.88750000 0.09851058 
[0,1,2] 1.94062500 1.05156250 2.79062500 0.15003542 
[0,1,2] 1.71800842 1.57876892 1.60304260 0.02239488 
[0,1,2] 1.82980957 1.18771973 1.40148926 0.12806782 
[0,1,2] 2.38354950 1.33223572 1.61069489 0.08809261 
[0,1,2] 1.40287704 2.36100578 1.99906769 0.10080283 
[0,1,2] 2.10000000 2.65000000 1.88750000 0.06810126 
[0,1,2] 2.00256310 2.37586651 2.12434464 0.06172552 
[0,1,2] 2.68638859 1.41822777 1.92186718 0.11399651 
[0,1,2] 2.31250000 2.65000000 1.78125000 0.09450122 
[0,1,2] 2.95000000 2.03125000 1.67500000 0.15117924 
[0,1,2] 2.15907822 1.53105850 2.44638901 0.10011628 
[0,1,2] 2.00309730 1.83406608 1.63129930 0.02044853 
[0,1,2] 2.66149597 1.65278931 2.17496643 0.13022910 
[0,1,2] 2.18267708 1.46430168 1.38720284 0.12554588 
[0,1,2] 2.33231812 1.19597778 2.32982788 0.12227961 
[0,1,2] 2.88765335 2.08008080 1.67572632 0.14491756 
[0,1,2] 2.63498535 1.80969238 1.51271973 0.12834348 
[0,1,2] 2.59424100 2.32412620 2.12210164 0.13866796 
[0,1,2] 1.74382799 1.70678296 1.94294217 0.00887730 
[0,1,2] 2.30720825 1.90032959 2.31986694 0.10180189 
[0,1,2] 1.66606045 2.51083097 1.60276375 0.03847124 
[0,1,2] 1.66807404 1.84509125 1.38647003 0.08411377 
[0,1,2] 1.99343872 1.13233032 2.43296509 0.10514201 
[0,1,2] 2.06318798 2.36257620 1.71894875 0.04020508 
[0,1,2] 2.68448849 1.62961388 2.22716084 0.14020595 
[0,1,2] 2.44907055 1.84524546 2.04884644 0.08657912 
[0,1,2] 1.91118317 1.87187958 1.56400299 0.02350746 
[0,1,2] 2.68271484 1.75893555 1.52890625 0.13048195 
[0,1,2] 1.97601357 1.98254509 1.39449196 0.08698868 
[0,1,2] 1.96988525 1.14864502 2.53018799 0.11375945 
[0,1,2] 1.88750000 2.65000000 1.46250000 0.08261630 
[0,1,2] 1.78125000 2.62421875 1.48906250 0.06677009 
[0,1,2] 2.44448242 1.75804491 2.12683163 0.09363884 
[0,1,2] 1.49148788 1.73738403 1.83008194 0.03972457 
[0,1,2] 1.66486397 2.45859814 2.51760712 0.11620861 
[0,1,2] 1.98890572 1.95425243 2.50525970 0.09161794 
[0,1,2] 2.72006836 1.69851074 1.49570312 0.14502803 
