[0] 1.25000000 1.82217906 1.81146264 0.00858811 
[0] 1.81666667 1.82217906 1.81146264 -0.00009963 
[0] 2.38333333 1.82217906 1.81146264 -0.01261893 
[0] 2.95000000 1.82217906 1.81146264 -0.02879643 
[0] 1.53333333 1.82217906 1.81146264 0.00498910 
[0] 2.10000000 1.82217906 1.81146264 -0.00600592 
[0] 1.39166667 1.82217906 1.81146264 0.00704676 
[0] 1.53333333 1.82217906 1.81146264 0.00498910 
[0] 2.19444444 1.82217906 1.81146264 -0.00812795 
[0] 2.00555556 1.82217906 1.81146264 -0.00396047 
[0] 2.66666667 1.82217906 1.81146264 -0.02010892 
[0] 2.52500000 1.82217906 1.81146264 -0.01623558 
[0] 1.39166667 1.82217906 1.81146264 0.00704676 
[0] 1.67500000 1.82217906 1.81146264 0.00257142 
[0] 2.80833333 1.82217906 1.81146264 -0.02428187 
[0] 1.91111111 1.82217906 1.81146264 -0.00199083 
[0] 2.10000000 1.82217906 1.81146264 -0.00600592 
[0] 2.28888889 1.82217906 1.81146264 -0.01033013 
[0] 2.28888889 1.82217906 1.81146264 -0.01033013 
[0] 2.10000000 1.82217906 1.81146264 -0.00600592 
[0] 1.91111111 1.82217906 1.81146264 -0.00199083 
[0] 2.87916667 1.82217906 1.81146264 -0.02649402 
[0] 2.73750000 1.82217906 1.81146264 -0.02215521 
[0] 2.59583333 1.82217906 1.81146264 -0.01813729 
[0] 2.45416667 1.82217906 1.81146264 -0.01439789 
[0] 1.74583333 1.82217906 1.81146264 0.00126292 
[0] 1.60416667 1.82217906 1.81146264 0.00381731 
[0] 1.46250000 1.82217906 1.81146264 0.00607162 
[0] 1.32083333 1.82217906 1.81146264 0.00789320 
[1] 1.81157278 3.20000000 1.81146264 -0.00150182 
[1] 1.81157278 0.80000000 1.81146264 -0.00476506 
[1] 1.81157278 2.40000000 1.81146264 0.00011289 
[1] 1.81157278 1.60000000 1.81146264 -0.00117976 
[1] 1.81157278 2.80000000 1.81146264 -0.00105020 
[1] 1.81157278 1.20000000 1.81146264 -0.00426961 
[1] 1.81157278 2.00000000 1.81146264 0.00045966 
[1] 1.81157278 2.80000000 1.81146264 -0.00105020 
[1] 1.81157278 1.06666667 1.81146264 -0.00505621 
[1] 1.81157278 1.33333333 1.81146264 -0.00323122 
[1] 1.81157278 2.00000000 1.81146264 0.00045966 
[1] 1.81157278 2.60000000 1.81146264 -0.00046935 
[1] 1.81157278 1.20000000 1.81146264 -0.00426961 
[1] 1.81157278 1.80000000 1.81146264 -0.00008831 
[1] 1.81157278 1.46666667 1.81146264 -0.00215394 
[1] 1.81157278 1.53333333 1.81146264 -0.00164747 
[1] 1.81157278 1.70000000 1.81146264 -0.00057013 
[1] 1.81157278 1.40000000 1.81146264 -0.00268705 
[1] 1.81157278 3.00000000 1.81146264 -0.00143232 
[1] 1.81157278 1.70000000 1.81146264 -0.00057013 
[1] 1.81157278 1.40000000 1.81146264 -0.00268705 
[1] 1.81157278 1.26666667 1.81146264 -0.00376682 
[1] 1.81157278 1.53333333 1.81146264 -0.00164747 
[1] 1.81157278 2.20000000 1.81146264 0.00048440 
[1] 1.81157278 1.13333333 1.81146264 -0.00471054 
[1] 1.81157278 2.50000000 1.81146264 -0.00016483 
[1] 1.81157278 1.90000000 1.81146264 0.00025539 
[1] 1.81157278 2.70000000 1.81146264 -0.00077339 
[1] 1.81157278 0.93333333 1.81146264 -0.00531525 
[2] 1.81157278 1.82217906 1.25000000 0.00858616 
[2] 1.81157278 1.82217906 1.81666667 -0.00010178 
[2] 1.81157278 1.82217906 2.38333333 -0.01262135 
[2] 1.81157278 1.82217906 2.95000000 -0.02879908 
[2] 1.81157278 1.82217906 1.53333333 0.00498706 
[2] 1.81157278 1.82217906 1.39166667 0.00704477 
[2] 1.81157278 1.82217906 2.10000000 -0.00600821 
[2] 1.81157278 1.82217906 2.00555556 -0.00396271 
[2] 1.81157278 1.82217906 1.53333333 0.00498706 
[2] 1.81157278 1.82217906 2.19444444 -0.00813028 
[2] 1.81157278 1.82217906 2.66666667 -0.02011146 
[2] 1.81157278 1.82217906 2.52500000 -0.01623807 
[2] 1.81157278 1.82217906 1.39166667 0.00704477 
[2] 1.81157278 1.82217906 1.67500000 0.00256932 
[2] 1.81157278 1.82217906 2.80833333 -0.02428447 
[2] 1.81157278 1.82217906 2.10000000 -0.00600821 
[2] 1.81157278 1.82217906 1.91111111 -0.00199302 
[2] 1.81157278 1.82217906 2.28888889 -0.01033251 
[2] 1.81157278 1.82217906 1.91111111 -0.00199302 
[2] 1.81157278 1.82217906 2.28888889 -0.01033251 
[2] 1.81157278 1.82217906 2.10000000 -0.00600821 
[2] 1.81157278 1.82217906 2.87916667 -0.02649664 
[2] 1.81157278 1.82217906 2.59583333 -0.01813980 
[2] 1.81157278 1.82217906 2.45416667 -0.01440035 
[2] 1.81157278 1.82217906 1.74583333 0.00126080 
[2] 1.81157278 1.82217906 2.73750000 -0.02215778 
[2] 1.81157278 1.82217906 1.60416667 0.00381524 
[2] 1.81157278 1.82217906 1.32083333 0.00789123 
[2] 1.81157278 1.82217906 1.46250000 0.00606961 
[0,1] 1.25000000 2.65000000 1.81146264 0.00686092 
[0,1] 1.25000000 1.00000000 1.81146264 0.00347674 
[0,1] 2.95000000 2.65000000 1.81146264 -0.02821080 
[0,1] 2.95000000 1.00000000 1.81146264 -0.03403695 
[0,1] 1.47841921 2.39826567 1.81146264 0.00546280 
[0,1] 2.54841685 1.42086389 1.81146264 -0.01976073 
[0,1] 2.00555556 1.36666667 1.81146264 -0.00711027 
[0,1] 1.81666667 2.10000000 1.81146264 0.00043528 
[0,1] 1.67500000 2.65000000 1.81146264 0.00162929 
[0,1] 1.25000000 1.82500000 1.81146264 0.00859449 
[0,1] 2.10000000 2.65000000 1.81146264 -0.00584570 
[0,1] 2.21420961 2.52413283 1.81146264 -0.00796937 
[0,1] 2.70473654 2.05804428 1.81146264 -0.02049972 
[0,1] 1.81666667 1.27500000 1.81146264 -0.00380677 
[0,1] 2.10000000 1.82500000 1.81146264 -0.00599346 
[0,1] 1.73210480 2.17456642 1.81146264 0.00195589 
[0,1] 2.10000000 1.41250000 1.81146264 -0.00883801 
[0,1] 2.10000000 1.00000000 1.81146264 -0.01130535 
[0,1] 2.58210480 1.76206642 1.81146264 -0.01807263 
[0,1] 1.49105240 1.58728321 1.81146264 0.00459596 
[0,1] 2.54403493 1.39152214 1.81146264 -0.01990667 
[0,1] 2.95000000 1.82500000 1.81146264 -0.02878604 
[0,1] 2.52500000 2.03125000 1.81146264 -0.01552728 
[0,1] 2.17613974 2.15358856 1.81146264 -0.00691604 
[0,1] 2.13806987 1.78304428 1.81146264 -0.00703872 
[0,1] 1.61368413 1.19576107 1.81146264 -0.00040457 
[0,1] 1.77438574 1.72478321 1.81146264 0.00029069 
[0,1] 2.95000000 1.41250000 1.81146264 -0.03155046 
[0,1] 2.80833333 2.16875000 1.81146264 -0.02358731 
[0,1] 2.56306987 2.40179428 1.81146264 -0.01623223 
[0,1] 2.52500000 1.00000000 1.81146264 -0.02152377 
[0,1] 1.79552620 1.29364160 1.81146264 -0.00322135 
[0,1] 2.17824527 1.74342481 1.81146264 -0.00816045 
[0,1] 2.01049685 1.97686654 1.81146264 -0.00357088 
[0,1] 1.51219287 1.29364160 1.81146264 0.00215645 
[0,1] 1.58549685 1.90811654 1.81146264 0.00436107 
[0,1] 1.67500000 1.00000000 1.81146264 -0.00266915 
[0,1] 2.24990215 2.17741646 1.81146264 -0.00856242 
[0,1] 2.67301164 1.13050738 1.81146264 -0.02539348 
[0,1] 2.24801164 1.26800738 1.81146264 -0.01351245 
[0,1] 2.81467831 1.26800738 1.81146264 -0.02861757 
[0,1] 2.82736827 1.66652214 1.81146264 -0.02570558 
[0,1] 2.69204658 1.52202952 1.81146264 -0.02281947 
[0,1] 1.83570160 2.49152214 1.81146264 -0.00056807 
[0,1] 2.77380107 2.40684809 1.81146264 -0.02243891 
[0,1] 2.06540552 2.29203857 1.81146264 -0.00458772 
[0,1] 1.48684134 2.13261069 1.81146264 0.00598387 
[0,1] 1.25000000 1.41250000 1.81146264 0.00663936 
[0,2] 1.25000000 1.82217906 1.25000000 0.01636268 
[0,2] 2.95000000 1.82217906 2.95000000 -0.06318564 
[0,2] 2.95000000 1.82217906 1.25000000 -0.01828671 
[0,2] 1.25000000 1.82217906 2.95000000 -0.01828671 
[0,2] 1.47841921 1.82217906 2.69063735 -0.01389081 
[0,2] 2.54841685 1.82217906 1.68361734 -0.01406388 
[0,2] 2.38333333 1.82217906 1.81666667 -0.01273335 
[0,2] 2.19444444 1.82217906 2.57222222 -0.02693149 
[0,2] 2.21420961 1.82217906 1.97031868 -0.01208058 
[0,2] 1.89280640 1.82217906 1.73021245 -0.00003743 
[0,2] 2.10000000 1.82217906 1.25000000 0.00311602 
[0,2] 1.36420961 1.82217906 1.97031868 0.00442089 
[0,2] 2.21420961 1.82217906 2.53698534 -0.02645146 
[0,2] 2.95000000 1.82217906 2.10000000 -0.03618596 
[0,2] 2.58210480 1.82217906 2.46015934 -0.03458476 
[0,2] 1.50233867 1.82217906 1.65017704 0.00831477 
[0,2] 2.42140320 1.82217906 1.49010623 -0.00716829 
[0,2] 1.68561281 1.82217906 2.21042490 -0.00591310 
[0,2] 2.10000000 1.82217906 2.95000000 -0.03618596 
[0,2] 1.61744622 1.82217906 1.38339235 0.01046810 
[0,2] 1.99994081 1.82217906 2.37691453 -0.01677341 
[0,2] 2.31780640 1.82217906 2.58021245 -0.03049519 
[0,2] 2.21420961 1.82217906 2.82031868 -0.03500972 
[0,2] 2.95000000 1.82217906 2.10000000 -0.03618596 
[0,2] 2.70473654 1.82217906 1.77343956 -0.02032502 
[0,2] 2.58210480 1.82217906 2.46015934 -0.03458476 
[1,2] 1.81157278 2.65000000 2.95000000 -0.02821323 
[1,2] 1.81157278 2.65000000 1.25000000 0.00685901 
[1,2] 1.81157278 1.00000000 1.25000000 0.00347447 
[1,2] 1.81157278 1.00000000 2.95000000 -0.03403851 
[1,2] 1.81157278 1.22170100 2.69063735 -0.02535346 
[1,2] 1.81157278 2.26022812 1.68361734 0.00267369 
[1,2] 1.81157278 2.10000000 1.81666667 0.00043319 
[1,2] 1.81157278 1.36666667 2.00555556 -0.00711261 
[1,2] 1.81157278 1.93585050 2.82031868 -0.02426598 
[1,2] 1.81157278 1.00000000 2.10000000 -0.01130740 
[1,2] 1.81157278 1.82500000 2.95000000 -0.02878869 
[1,2] 1.81157278 2.41195017 2.34010623 -0.01067309 
[1,2] 1.81157278 1.59926689 2.23125275 -0.01034335 
[1,2] 1.81157278 1.55000000 1.53333333 0.00367431 
[1,2] 1.81157278 1.86195017 1.77343956 0.00087321 
[1,2] 1.81157278 1.82500000 1.25000000 0.00859254 
[1,2] 1.81157278 1.70597508 1.79505311 -0.00021351 
[1,2] 1.81157278 2.25597508 1.79505311 0.00071380 
[1,2] 1.81157278 1.23532503 1.71501770 -0.00205400 
[1,2] 1.81157278 2.01792525 2.31849267 -0.01037119 
[1,2] 1.81157278 1.70597508 2.22005311 -0.00934850 
[1,2] 1.81157278 2.65000000 2.10000000 -0.00584760 
[1,2] 1.81157278 1.46383804 2.24284523 -0.01171685 
[1,2] 1.81157278 2.24365836 1.43168437 0.00653674 
[1,2] 1.81157278 2.33260022 2.70347497 -0.02028039 
[1,2] 1.81157278 1.62117553 2.57700305 -0.01885533 
[1,2] 1.81157278 1.99329181 1.96953297 -0.00268920 
[1,2] 1.81157278 1.35344168 1.40500590 0.00431019 
[1,2] 1.81157278 1.22851302 2.34449420 -0.01616087 
[1,2] 1.81157278 2.65000000 1.67500000 0.00162741 
[1,2] 1.81157278 1.41250000 2.95000000 -0.03155307 
[1,2] 1.81157278 1.92898339 1.61336874 0.00393213 
[1,2] 1.81157278 1.46837938 1.91763868 -0.00435698 
[1,2] 1.81157278 2.65000000 2.52500000 -0.01490495 
[1,2] 1.81157278 2.13466113 1.37112291 0.00748675 
[1,2] 1.81157278 1.60406285 2.67105464 -0.02157270 
[1,2] 1.81157278 2.17390033 2.58021245 -0.01681473 
[1,2] 1.81157278 2.28949169 1.43168437 0.00641820 
[1,2] 1.81157278 1.62813892 1.48335300 0.00494555 
[1,2] 1.81157278 1.00000000 2.52500000 -0.02152557 
[1,2] 1.81157278 2.41195017 2.76510623 -0.02215835 
[1,2] 1.81157278 1.00000000 1.67500000 -0.00267137 
[1,2] 1.81157278 1.82091279 2.52018589 -0.01611725 
[1,2] 1.81157278 1.43816902 2.59642262 -0.02089899 
[1,2] 1.81157278 2.12190864 2.63463919 -0.01838642 
[1,2] 1.81157278 1.69984427 2.53158195 -0.01709771 
[1,2] 1.81157278 1.48503793 2.72027442 -0.02394234 
[1,2] 1.81157278 1.69469394 2.68886950 -0.02144323 
[0,1,2] 1.25000000 1.00000000 1.25000000 0.01250326 
[0,1,2] 1.25000000 2.65000000 1.25000000 0.01458237 
[0,1,2] 1.25000000 1.00000000 2.95000000 -0.02701205 
[0,1,2] 1.25000000 2.65000000 2.95000000 -0.01857249 
[0,1,2] 2.95000000 1.00000000 2.95000000 -0.04759001 
[0,1,2] 2.95000000 1.00000000 1.25000000 -0.02701205 
[0,1,2] 2.95000000 2.65000000 2.95000000 -0.06541916 
[0,1,2] 2.95000000 2.65000000 1.25000000 -0.01857249 
[0,1,2] 2.10000000 1.00000000 2.10000000 -0.01691686 
[0,1,2] 2.95000000 2.65000000 2.95000000 -0.06541916 
[0,1,2] 2.95000000 1.00000000 1.25000000 -0.02701205 
[0,1,2] 2.95000000 2.65000000 1.25000000 -0.01857249 
[0,1,2] 1.88750000 1.41250000 2.73750000 -0.02688904 
[0,1,2] 2.10000000 2.65000000 2.10000000 -0.01117693 
[0,1,2] 1.88750000 2.23750000 2.31250000 -0.01155720 
[0,1,2] 2.73750000 1.41250000 1.88750000 -0.02688904 
[0,1,2] 1.46250000 1.82500000 1.88750000 0.00466341 
[0,1,2] 1.46250000 1.41250000 2.31250000 -0.00680458 
[0,1,2] 2.73750000 1.82500000 2.31250000 -0.03510420 
[0,1,2] 2.10000000 2.65000000 2.10000000 -0.01117693 
[0,1,2] 2.10000000 1.82500000 2.95000000 -0.03617448 
[0,1,2] 2.20625000 2.23750000 2.41875000 -0.02155147 
[0,1,2] 2.10000000 1.82500000 1.25000000 0.00312356 
[0,1,2] 1.99375000 1.41250000 2.63125000 -0.02646377 
[0,1,2] 1.99375000 2.23750000 1.78125000 -0.00250894 
[0,1,2] 2.20625000 1.41250000 1.56875000 -0.00627930 
[0,1,2] 2.10000000 2.65000000 2.10000000 -0.01117693 
[0,1,2] 2.10000000 1.82500000 2.95000000 -0.03617448 
[0,1,2] 2.95000000 2.65000000 2.10000000 -0.03509247 
[0,1,2] 1.99375000 2.23750000 2.63125000 -0.02233108 
[0,1,2] 1.70156250 2.13437500 2.39218750 -0.00974129 
[0,1,2] 1.25000000 2.65000000 2.10000000 0.00164529 
[0,1,2] 2.47187500 2.23750000 2.57812500 -0.03336114 
[0,1,2] 1.25000000 1.82500000 1.25000000 0.01636616 
[0,1,2] 2.95000000 1.82500000 2.95000000 -0.06317904 
[0,1,2] 1.25000000 1.82500000 2.95000000 -0.01827867 
[0,1,2] 2.95000000 1.82500000 1.25000000 -0.01827867 
[0,1,2] 2.84375000 2.03125000 1.56875000 -0.01960113 
[0,1,2] 2.10000000 2.65000000 2.95000000 -0.03509247 
[0,1,2] 2.23281250 1.72187500 2.07343750 -0.01552731 
[0,1,2] 2.10000000 2.65000000 1.25000000 0.00164529 
[0,1,2] 1.25000000 1.00000000 2.10000000 -0.00285434 
[0,1,2] 2.10000000 1.00000000 1.25000000 -0.00285434 
[0,1,2] 1.35625000 2.23750000 2.41875000 -0.00475644 
[0,1,2] 2.65781250 2.13437500 2.71093750 -0.04369763 
[0,1,2] 2.63125000 2.18593750 1.94062500 -0.02114321 
[0,1,2] 2.10000000 1.00000000 2.95000000 -0.03788003 
[0,1,2] 2.95000000 1.00000000 2.10000000 -0.03788003 
[0,1,2] 2.65781250 1.51562500 2.71093750 -0.04644378 
[0,1,2] 1.35625000 1.20625000 1.78125000 0.00443527 
[0,1,2] 2.44531250 1.20625000 2.39218750 -0.03228477 
[0] 2.38333333 1.82217906 1.81146264 -0.01261893 
[0] 1.25000000 1.82217906 1.81146264 0.00858811 
[0] 1.81666667 1.82217906 1.81146264 -0.00009963 
[0] 2.95000000 1.82217906 1.81146264 -0.02879643 
[0] 1.53333333 1.82217906 1.81146264 0.00498910 
[0] 2.10000000 1.82217906 1.81146264 -0.00600592 
[0] 1.95833333 1.82217906 1.81146264 -0.00296610 
[0] 2.19444444 1.82217906 1.81146264 -0.00812795 
[0] 1.53333333 1.82217906 1.81146264 0.00498910 
[0] 2.00555556 1.82217906 1.81146264 -0.00396047 
[0] 2.66666667 1.82217906 1.81146264 -0.02010892 
[0] 2.52500000 1.82217906 1.81146264 -0.01623558 
[0] 1.67500000 1.82217906 1.81146264 0.00257142 
[0] 1.39166667 1.82217906 1.81146264 0.00704676 
[0] 2.80833333 1.82217906 1.81146264 -0.02428187 
[0] 2.10000000 1.82217906 1.81146264 -0.00600592 
[0] 1.91111111 1.82217906 1.81146264 -0.00199083 
[0] 2.28888889 1.82217906 1.81146264 -0.01033013 
[0] 2.10000000 1.82217906 1.81146264 -0.00600592 
[0] 2.28888889 1.82217906 1.81146264 -0.01033013 
[0] 1.91111111 1.82217906 1.81146264 -0.00199083 
[0] 2.87916667 1.82217906 1.81146264 -0.02649402 
[0] 2.59583333 1.82217906 1.81146264 -0.01813729 
[0] 2.45416667 1.82217906 1.81146264 -0.01439789 
[0] 2.73750000 1.82217906 1.81146264 -0.02215521 
[0] 1.74583333 1.82217906 1.81146264 0.00126292 
[0] 1.60416667 1.82217906 1.81146264 0.00381731 
[0] 1.46250000 1.82217906 1.81146264 0.00607162 
[0] 1.32083333 1.82217906 1.81146264 0.00789320 
[1] 1.81157278 3.20000000 1.81146264 -0.00150182 
[1] 1.81157278 0.80000000 1.81146264 -0.00476506 
[1] 1.81157278 1.60000000 1.81146264 -0.00117976 
[1] 1.81157278 2.40000000 1.81146264 0.00011289 
[1] 1.81157278 1.20000000 1.81146264 -0.00426961 
[1] 1.81157278 1.00000000 1.81146264 -0.00527022 
[1] 1.81157278 2.00000000 1.81146264 0.00045966 
[1] 1.81157278 1.06666667 1.81146264 -0.00505621 
[1] 1.81157278 2.00000000 1.81146264 0.00045966 
[1] 1.81157278 2.80000000 1.81146264 -0.00105020 
[1] 1.81157278 1.33333333 1.81146264 -0.00323122 
[1] 1.81157278 1.20000000 1.81146264 -0.00426961 
[1] 1.81157278 1.46666667 1.81146264 -0.00215394 
[1] 1.81157278 1.80000000 1.81146264 -0.00008831 
[1] 1.81157278 2.60000000 1.81146264 -0.00046935 
[1] 1.81157278 1.26666667 1.81146264 -0.00376682 
[1] 1.81157278 1.70000000 1.81146264 -0.00057013 
[1] 1.81157278 1.40000000 1.81146264 -0.00268705 
[1] 1.81157278 1.40000000 1.81146264 -0.00268705 
[1] 1.81157278 3.00000000 1.81146264 -0.00143232 
[1] 1.81157278 1.26666667 1.81146264 -0.00376682 
[1] 1.81157278 1.70000000 1.81146264 -0.00057013 
[1] 1.81157278 1.13333333 1.81146264 -0.00471054 
[1] 1.81157278 1.53333333 1.81146264 -0.00164747 
[1] 1.81157278 2.50000000 1.81146264 -0.00016483 
[1] 1.81157278 2.20000000 1.81146264 0.00048440 
[1] 1.81157278 1.90000000 1.81146264 0.00025539 
[1] 1.81157278 2.70000000 1.81146264 -0.00077339 
[1] 1.81157278 0.93333333 1.81146264 -0.00531525 
[2] 1.81157278 1.82217906 1.81666667 -0.00010178 
[2] 1.81157278 1.82217906 1.25000000 0.00858616 
[2] 1.81157278 1.82217906 2.38333333 -0.01262135 
[2] 1.81157278 1.82217906 2.95000000 -0.02879908 
[2] 1.81157278 1.82217906 1.53333333 0.00498706 
[2] 1.81157278 1.82217906 1.39166667 0.00704477 
[2] 1.81157278 1.82217906 2.10000000 -0.00600821 
[2] 1.81157278 1.82217906 2.19444444 -0.00813028 
[2] 1.81157278 1.82217906 1.53333333 0.00498706 
[2] 1.81157278 1.82217906 2.00555556 -0.00396271 
[2] 1.81157278 1.82217906 2.66666667 -0.02011146 
[2] 1.81157278 1.82217906 2.52500000 -0.01623807 
[2] 1.81157278 1.82217906 1.39166667 0.00704477 
[2] 1.81157278 1.82217906 2.80833333 -0.02428447 
[2] 1.81157278 1.82217906 1.67500000 0.00256932 
[2] 1.81157278 1.82217906 2.28888889 -0.01033251 
[2] 1.81157278 1.82217906 2.10000000 -0.00600821 
[2] 1.81157278 1.82217906 1.91111111 -0.00199302 
[2] 1.81157278 1.82217906 2.87916667 -0.02649664 
[2] 1.81157278 1.82217906 2.10000000 -0.00600821 
[2] 1.81157278 1.82217906 2.28888889 -0.01033251 
[2] 1.81157278 1.82217906 1.91111111 -0.00199302 
[2] 1.81157278 1.82217906 2.45416667 -0.01440035 
[2] 1.81157278 1.82217906 2.59583333 -0.01813980 
[2] 1.81157278 1.82217906 1.74583333 0.00126080 
[2] 1.81157278 1.82217906 2.73750000 -0.02215778 
[2] 1.81157278 1.82217906 1.32083333 0.00789123 
[2] 1.81157278 1.82217906 1.46250000 0.00606961 
[2] 1.81157278 1.82217906 1.60416667 0.00381524 
[0,1] 1.25000000 2.65000000 1.81146264 0.00686092 
[0,1] 1.25000000 1.00000000 1.81146264 0.00347674 
[0,1] 2.95000000 2.65000000 1.81146264 -0.02821080 
[0,1] 2.95000000 1.00000000 1.81146264 -0.03403695 
[0,1] 1.47841921 2.39826567 1.81146264 0.00546280 
[0,1] 2.54841685 1.42086389 1.81146264 -0.01976073 
[0,1] 1.81666667 2.10000000 1.81146264 0.00043528 
[0,1] 2.00555556 1.36666667 1.81146264 -0.00711027 
[0,1] 1.25000000 1.82500000 1.81146264 0.00859449 
[0,1] 2.21420961 2.52413283 1.81146264 -0.00796937 
[0,1] 1.67500000 2.65000000 1.81146264 0.00162929 
[0,1] 2.10000000 2.65000000 1.81146264 -0.00584570 
[0,1] 2.13806987 1.78304428 1.81146264 -0.00703872 
[0,1] 1.81666667 1.27500000 1.81146264 -0.00380677 
[0,1] 2.70473654 2.05804428 1.81146264 -0.02049972 
[0,1] 2.58210480 1.76206642 1.81146264 -0.01807263 
[0,1] 2.10000000 1.00000000 1.81146264 -0.01130535 
[0,1] 1.73210480 2.17456642 1.81146264 0.00195589 
[0,1] 2.10000000 1.41250000 1.81146264 -0.00883801 
[0,1] 1.69403493 1.52902214 1.81146264 0.00063863 
[0,1] 2.54403493 1.25402214 1.81146264 -0.02108033 
[0,1] 2.58210480 2.31206642 1.81146264 -0.01678916 
[0,1] 2.95000000 1.82500000 1.81146264 -0.02878604 
[0,1] 2.13806987 1.78304428 1.81146264 -0.00703872 
[0,1] 1.68134498 1.17634071 1.81146264 -0.00182737 
[0,1] 2.17613974 2.15358856 1.81146264 -0.00691604 
[0,1] 2.81467831 1.35967405 1.81146264 -0.02782481 
[0,1] 1.39801164 1.45134071 1.81146264 0.00512576 
[0,1] 1.91605240 1.79353321 1.81146264 -0.00221438 
[0,1] 2.95000000 2.23750000 1.81146264 -0.02844416 
[0,1] 1.55871325 1.84286285 1.81146264 0.00464103 
[0,1] 2.40871325 1.47619619 1.81146264 -0.01565882 
[0,1] 2.36008734 1.95588868 1.81146264 -0.01153234 
[0,1] 2.23745560 2.20991082 1.81146264 -0.00827001 
[0,1] 2.70473654 2.10387761 1.81146264 -0.02043830 
[0,1] 2.19938574 1.65603321 1.81146264 -0.00919146 
[0,1] 2.06513100 2.15883302 1.81146264 -0.00452041 
[0,1] 2.78226104 1.64891349 1.81146264 -0.02446404 
[0,1] 2.24801164 1.22217405 1.81146264 -0.01385860 
[0,1] 2.52500000 1.00000000 1.81146264 -0.02152377 
[0,1] 2.58210480 2.58706642 1.81146264 -0.01650955 
[0,1] 1.83570160 2.49152214 1.81146264 -0.00056807 
[0,1] 1.89701747 1.26451107 1.81146264 -0.00558408 
[0,1] 2.82736827 2.39985547 1.81146264 -0.02421453 
[0,1] 2.76605240 1.99978321 1.81146264 -0.02244243 
[0,1] 1.51500970 1.23861726 1.81146264 0.00167773 
[0,1] 1.67500000 1.00000000 1.81146264 -0.00266915 
[0,1] 1.93508734 2.29199979 1.81146264 -0.00197838 
[0,1] 1.42904415 2.02204284 1.81146264 0.00683792 
[0,1] 1.25000000 2.23750000 1.81146264 0.00845530 
[0,1] 2.16238282 1.63486470 1.81146264 -0.00848627 
[0,1] 2.56941485 2.08924610 1.81146264 -0.01661502 
[0,1] 1.90336245 1.57835178 1.81146264 -0.00321373 
[0,1] 2.17119845 1.98644424 1.81146264 -0.00703476 
[0,1] 2.95000000 1.41250000 1.81146264 -0.03155046 
[0,1] 2.66855087 1.49492791 1.81146264 -0.02238677 
[0,1] 2.76957108 1.20456540 1.81146264 -0.02775552 
[0,1] 2.67301164 1.08467405 1.81146264 -0.02555246 
[0,1] 1.93978522 1.98484795 1.81146264 -0.00209421 
[0,1] 2.36819165 1.78427326 1.81146264 -0.01243590 
[0,1] 2.34459001 2.34870336 1.81146264 -0.01075542 
[0,1] 1.73562348 1.93698749 1.81146264 0.00178033 
[0,1] 2.76605240 2.18311654 1.81146264 -0.02224430 
[0,1] 2.04691962 2.12364049 1.81146264 -0.00414844 
[0,1] 2.09578894 2.40852193 1.81146264 -0.00536077 
[0,1] 2.78649102 2.54564063 1.81146264 -0.02264426 
[0,2] 1.25000000 1.82217906 1.25000000 0.01636268 
[0,2] 2.95000000 1.82217906 2.95000000 -0.06318564 
[0,2] 1.25000000 1.82217906 2.95000000 -0.01828671 
[0,2] 2.95000000 1.82217906 1.25000000 -0.01828671 
[0,2] 1.47841921 1.82217906 2.69063735 -0.01389081 
[0,2] 2.54841685 1.82217906 1.68361734 -0.01406388 
[0,2] 1.81666667 1.82217906 2.38333333 -0.01273335 
[0,2] 2.57222222 1.82217906 2.19444444 -0.02693149 
[0,2] 2.21420961 1.82217906 1.97031868 -0.01208058 
[0,2] 2.10000000 1.82217906 1.25000000 0.00311602 
[0,2] 1.36420961 1.82217906 1.97031868 0.00442089 
[0,2] 1.89280640 1.82217906 1.73021245 -0.00003743 
[0,2] 2.58210480 1.82217906 2.46015934 -0.03458476 
[0,2] 2.95000000 1.82217906 2.10000000 -0.03618596 
[0,2] 2.21420961 1.82217906 2.53698534 -0.02645146 
[0,2] 2.42140320 1.82217906 1.49010623 -0.00716829 
[0,2] 1.50233867 1.82217906 1.65017704 0.00831477 
[0,2] 1.68561281 1.82217906 2.21042490 -0.00591310 
[0,2] 2.10000000 1.82217906 2.95000000 -0.03618596 
[0,2] 1.74760213 1.82217906 1.41007082 0.00794424 
[0,2] 1.99994081 1.82217906 2.37691453 -0.01677341 
[0,2] 2.31780640 1.82217906 2.58021245 -0.03049519 
[0,2] 2.21420961 1.82217906 2.82031868 -0.03500972 
[0,2] 2.58210480 1.82217906 2.46015934 -0.03458476 
[0,2] 2.70473654 1.82217906 1.77343956 -0.02032502 
[0,2] 2.95000000 1.82217906 2.10000000 -0.03618596 
[0,2] 2.58210480 1.82217906 1.61015934 -0.01344403 
[0,2] 1.85945334 1.82217906 2.67251729 -0.02139653 
[0,2] 2.95000000 1.82217906 2.10000000 -0.03618596 
[0,2] 1.67500000 1.82217906 2.95000000 -0.02564282 
[0,2] 2.76605240 1.82217906 2.28007967 -0.03510764 
[0,2] 2.49400534 1.82217906 2.21684371 -0.02531659 
[0,2] 2.67795294 1.82217906 2.60343071 -0.04186648 
[0,2] 2.95000000 1.82217906 1.67500000 -0.02564282 
[0,2] 2.52078894 1.82217906 1.95351923 -0.01943001 
[0,2] 2.58210480 1.82217906 2.88515934 -0.04810450 
[0,2] 2.67537005 1.82217906 1.97566768 -0.02429668 
[1,2] 1.81157278 2.65000000 1.25000000 0.00685901 
[1,2] 1.81157278 1.00000000 1.25000000 0.00347447 
[1,2] 1.81157278 2.65000000 2.95000000 -0.02821323 
[1,2] 1.81157278 1.00000000 2.95000000 -0.03403851 
[1,2] 1.81157278 1.22170100 2.69063735 -0.02535346 
[1,2] 1.81157278 2.26022812 1.68361734 0.00267369 
[1,2] 1.81157278 1.36666667 2.00555556 -0.00711261 
[1,2] 1.81157278 2.10000000 1.81666667 0.00043319 
[1,2] 1.81157278 2.41195017 2.34010623 -0.01067309 
[1,2] 1.81157278 1.00000000 2.10000000 -0.01130740 
[1,2] 1.81157278 1.93585050 2.82031868 -0.02426598 
[1,2] 1.81157278 1.82500000 2.95000000 -0.02878869 
[1,2] 1.81157278 1.54455039 2.09358119 -0.00760119 
[1,2] 1.81157278 1.70597508 2.22005311 -0.00934850 
[1,2] 1.81157278 2.02065006 1.61336874 0.00404272 
[1,2] 1.81157278 1.70597508 2.22005311 -0.00934850 
[1,2] 1.81157278 2.65000000 2.10000000 -0.00584760 
[1,2] 1.81157278 1.46792525 2.46015934 -0.01704046 
[1,2] 1.81157278 2.33260022 2.70347497 -0.02028039 
[1,2] 1.81157278 1.78532503 1.57335104 0.00420768 
[1,2] 1.81157278 2.17798754 1.73502656 0.00189843 
[1,2] 1.81157278 1.82500000 1.25000000 0.00859254 
[1,2] 1.81157278 1.35298754 1.73502656 -0.00151862 
[1,2] 1.81157278 1.49710004 1.96446805 -0.00513131 
[1,2] 1.81157278 2.09863760 2.09839530 -0.00525965 
[1,2] 1.81157278 2.01792525 2.46015934 -0.01387056 
[1,2] 1.81157278 2.21766251 1.41167552 0.00684986 
[1,2] 1.81157278 1.39266251 1.41167552 0.00450671 
[1,2] 1.81157278 1.27363760 2.09839530 -0.00997191 
[1,2] 1.81157278 2.49266251 1.69500885 0.00184702 
[1,2] 1.81157278 1.88976255 1.84281024 -0.00038539 
[1,2] 1.81157278 1.00000000 1.67500000 -0.00267137 
[1,2] 1.81157278 1.61476255 1.84281024 -0.00171577 
[1,2] 1.81157278 1.41250000 2.95000000 -0.03155307 
[1,2] 1.81157278 2.00256260 2.13432319 -0.00618172 
[1,2] 1.81157278 1.50487542 2.70026556 -0.02320074 
[1,2] 1.81157278 2.65000000 2.52500000 -0.01490495 
[1,2] 1.81157278 2.15085636 2.09145823 -0.00508146 
[1,2] 1.81157278 1.70325028 2.50017704 -0.01625210 
[1,2] 1.81157278 2.41331257 2.05837759 -0.00461225 
[1,2] 1.81157278 1.00000000 2.52500000 -0.02152557 
[1,2] 1.81157278 1.93089398 2.37727667 -0.01203426 
[1,2] 1.81157278 1.64691676 2.80005901 -0.02501269 
[1,2] 1.81157278 1.24718762 2.36118488 -0.01643574 
[1,2] 1.81157278 2.13811685 2.39073662 -0.01193119 
[1,2] 1.81157278 1.53145841 2.05375288 -0.00681427 
[1,2] 1.81157278 2.06644824 2.63369011 -0.01843640 
[1,2] 1.81157278 2.29292525 2.88515934 -0.02618669 
[0,1,2] 1.25000000 1.00000000 1.25000000 0.01250326 
[0,1,2] 1.25000000 2.65000000 1.25000000 0.01458237 
[0,1,2] 1.25000000 1.00000000 2.95000000 -0.02701205 
[0,1,2] 1.25000000 2.65000000 2.95000000 -0.01857249 
[0,1,2] 2.95000000 1.00000000 2.95000000 -0.04759001 
[0,1,2] 2.95000000 1.00000000 1.25000000 -0.02701205 
[0,1,2] 2.95000000 2.65000000 2.95000000 -0.06541916 
[0,1,2] 2.95000000 2.65000000 1.25000000 -0.01857249 
[0,1,2] 2.10000000 1.00000000 2.10000000 -0.01691686 
[0,1,2] 2.95000000 2.65000000 2.95000000 -0.06541916 
[0,1,2] 2.95000000 2.65000000 1.25000000 -0.01857249 
[0,1,2] 2.95000000 1.00000000 1.25000000 -0.02701205 
[0,1,2] 1.88750000 1.41250000 2.73750000 -0.02688904 
[0,1,2] 1.88750000 2.23750000 2.31250000 -0.01155720 
[0,1,2] 2.52500000 1.82500000 2.52500000 -0.03477078 
[0,1,2] 1.46250000 1.41250000 2.31250000 -0.00680458 
[0,1,2] 1.88750000 1.41250000 1.46250000 0.00238813 
[0,1,2] 1.46250000 1.82500000 1.88750000 0.00466341 
[0,1,2] 2.31250000 1.82500000 1.46250000 -0.00415988 
[0,1,2] 2.15312500 2.34062500 2.36562500 -0.01869163 
[0,1,2] 2.10000000 2.65000000 2.10000000 -0.01117693 
[0,1,2] 2.10000000 1.82500000 2.95000000 -0.03617448 
[0,1,2] 2.20625000 1.72187500 2.20625000 -0.01811741 
[0,1,2] 2.10000000 1.82500000 2.95000000 -0.03617448 
[0,1,2] 1.78125000 2.13437500 2.52500000 -0.01471681 
[0,1,2] 2.95000000 1.82500000 2.10000000 -0.03617448 
[0,1,2] 2.10000000 2.65000000 2.10000000 -0.01117693 
[0,1,2] 2.73750000 1.82500000 2.73750000 -0.04812017 
[0,1,2] 2.36562500 2.39218750 1.88750000 -0.01278653 
[0,1,2] 2.10000000 2.65000000 2.95000000 -0.03509247 
[0,1,2] 2.73750000 2.44375000 2.10000000 -0.02790440 
[0,1,2] 2.10000000 1.20625000 2.73750000 -0.03322314 
[0,1,2] 2.73750000 1.20625000 2.10000000 -0.03322314 
[0,1,2] 2.57812500 1.41250000 1.72812500 -0.01874086 
[0,1,2] 2.53828125 2.37929687 2.63125000 -0.03673439 
[0,1,2] 2.10000000 2.65000000 1.25000000 0.00164529 
[0,1,2] 2.95000000 1.82500000 1.25000000 -0.01827867 
[0,1,2] 1.25000000 2.65000000 2.10000000 0.00164529 
[0,1,2] 1.67500000 1.00000000 2.52500000 -0.01930932 
[0,1,2] 2.95000000 2.65000000 2.10000000 -0.03509247 
[0,1,2] 1.25000000 1.82500000 2.95000000 -0.01827867 
[0,1,2] 2.10000000 1.00000000 1.25000000 -0.00285434 
[0,1,2] 2.95000000 1.00000000 2.10000000 -0.03788003 
[0,1,2] 2.10000000 1.00000000 2.95000000 -0.03788003 
[0,1,2] 2.41875000 1.41250000 2.41875000 -0.03165537 
[0,1,2] 1.51562500 2.44375000 1.62187500 0.00793465 
[0,1,2] 2.20625000 1.20625000 2.63125000 -0.03269739 
[0,1,2] 2.95000000 1.00000000 2.10000000 -0.03788003 
[0,1,2] 1.25000000 1.82500000 1.25000000 0.01636616 
[0,1,2] 1.72812500 2.44375000 1.83437500 0.00104176 
[0,1,2] 1.25000000 2.23750000 2.52500000 -0.00614223 
[0,1,2] 2.95000000 2.23750000 1.67500000 -0.02539904 
[0,1,2] 1.67500000 1.00000000 1.67500000 -0.00002686 
[0,1,2] 2.10000000 1.00000000 2.95000000 -0.03788003 
[0,1,2] 1.25000000 1.61875000 1.88750000 0.00645881 
[0,1,2] 1.91406250 1.38671875 2.02031250 -0.00950358 
[0,1,2] 1.92734375 1.95390625 1.84765625 -0.00262338 
[0,1,2] 2.51503906 2.07958984 2.20625000 -0.02456543 
[0,1,2] 1.67500000 2.65000000 2.52500000 -0.01246817 
[0,1,2] 1.78125000 1.82500000 1.35625000 0.00803408 
[0,1,2] 1.99375000 1.54140625 2.52500000 -0.02246256 
[0,1,2] 2.70097656 2.31162109 2.17968750 -0.02898609 
[0,1,2] 1.56875000 1.41250000 2.84375000 -0.02287753 
[0,1,2] 2.52500000 1.00000000 1.67500000 -0.01930932 
[0,1,2] 1.51562500 1.41250000 1.72812500 0.00460846 
[0,1,2] 1.67500000 2.23750000 2.95000000 -0.02539904 
[0,1,2] 2.95000000 1.82500000 2.95000000 -0.06317904 
[0,1,2] 2.52500000 1.00000000 1.67500000 -0.01930932 
[0,1,2] 1.88750000 1.00000000 1.46250000 -0.00068521 
[0,1,2] 2.84375000 1.41250000 2.41875000 -0.04405422 
[0,1,2] 2.52500000 2.44375000 1.46250000 -0.00903256 
[0,1,2] 1.46250000 1.00000000 1.88750000 -0.00068521 
[0,1,2] 1.25000000 1.00000000 2.10000000 -0.00285434 
[0,1,2] 2.52500000 2.23750000 2.95000000 -0.04803166 
[0,1,2] 1.46250000 1.30937500 1.46250000 0.00925903 
[0,1,2] 2.95000000 1.41250000 1.67500000 -0.02842053 
[0,1,2] 1.51562500 1.51562500 1.62187500 0.00721047 
[0,1,2] 2.52500000 2.65000000 2.52500000 -0.03137848 
[0,1,2] 1.25000000 2.03125000 1.88750000 0.00742570 
[0,1,2] 2.23364258 2.31081543 2.36562500 -0.02069556 
[0,1,2] 2.95000000 1.41250000 1.67500000 -0.02842053 
[0,1,2] 2.52500000 1.41250000 2.95000000 -0.05055306 
[0,1,2] 2.23364258 2.10456543 2.57812500 -0.02703185 
[0,1,2] 2.41875000 1.20625000 1.35625000 -0.00972455 
[0,1,2] 2.57812500 1.10312500 2.36562500 -0.03410603 
[0,1,2] 2.10000000 1.00000000 2.95000000 -0.03788003 
[0,1,2] 2.68188477 1.99177246 1.86093750 -0.02109636 
[0,1,2] 1.43593750 1.90234375 2.57812500 -0.00991608 
[0,1,2] 1.25000000 1.41250000 2.52500000 -0.00895265 
[0,1,2] 1.51562500 2.23750000 1.30312500 0.01270799 
[0,1,2] 1.48906250 1.90234375 2.31250000 -0.00435742 
[0,1,2] 2.69765625 1.82500000 1.52890625 -0.01499359 
[0,1,2] 2.84375000 2.23750000 2.84375000 -0.05507224 
[0,1,2] 2.95000000 2.23750000 2.52500000 -0.04803166 
[0,1,2] 2.41376953 1.95229492 1.83437500 -0.01336865 
[0,1,2] 2.03027344 2.06347656 1.47910156 0.00200016 
[0,1,2] 1.51562500 2.39218750 2.73750000 -0.01552948 
[0,1,2] 1.46250000 1.41250000 1.88750000 0.00238813 
[0,1,2] 2.84375000 2.54687500 2.52500000 -0.04343583 
[0,1,2] 2.05600586 2.38735352 1.61274414 -0.00105318 
[0,1,2] 2.95000000 1.41250000 1.25000000 -0.02106887 
[0,1,2] 1.67500000 1.79921875 2.81718750 -0.02154834 
[0,1,2] 1.51562500 2.39218750 2.73750000 -0.01552948 
[0,1,2] 2.95000000 1.41250000 2.95000000 -0.06394924 
[0,1,2] 2.53828125 1.59296875 2.11328125 -0.02542545 
[0,1,2] 2.37247314 1.79176636 2.67109375 -0.03492825 
[0,1,2] 2.25273438 1.30292969 2.06679688 -0.01919213 
[0,1,2] 1.91759033 2.21071167 2.14316406 -0.00832405 
[0,1,2] 1.60859375 2.36640625 2.35234375 -0.00719664 
[0,1,2] 1.88750000 1.20625000 2.95000000 -0.03494501 
[0,1,2] 1.67500000 2.23750000 2.95000000 -0.02539904 
[0,1,2] 2.25937500 1.61875000 2.68437500 -0.03331356 
[0,1,2] 2.57812500 1.77343750 2.15312500 -0.02629732 
