clear
reset
set key off
set border 3

# Add a vertical dotted line at x=0 to show centre (mean) of distribution.
set yzeroaxis

# Each bar is half the (visual) width of its x-range.
set boxwidth 0.05 absolute
set style fill solid 1.0 noborder

bin_width = 0.001;

bin_number(x) = floor(x/bin_width)

rounded(x) = bin_width * ( bin_number(x) + 0.5 )

plot 'computed_points/hono_tab_mapped.txt' using (rounded($8)):(8) smooth frequency with boxes

