
 Primary working directories    : /tmp/antoaert/molpro.C3WeqJXVna
 Secondary working directories  : /tmp/antoaert/molpro.C3WeqJXVna
 Wavefunction directory         : /home/antoaert/wfu/
 Main file repository           : /tmp/antoaert/molpro.C3WeqJXVna/

 id        : ulbac

 Nodes                nprocs
 nathalie-supermachine    1

 Using customized tuning parameters: mindgm=1; mindgv=20; mindgc=4; mindgr=1; noblas=0; minvec=7
 default implementation of scratch files=df  


 Variables initialized (945), CPU time= 0.00 sec
 ***,H2O aug-cc-pVTZ-F12 uks
 
 memory,250,m
 print orbitals
 geometry={angstrom
 H
 O 1 ROH1
 H 2 ROH2 1 AHOH}
 
 basis=cc-pVTZ-f12
 ROH1=1.2
 ROH2=1.15
 AHOH=109.5
 hf;
 escf=energy
 ccsd(t)-f12;
 optg
 eccsdta=energy(1)
 eccsdtb=energy(2)
 
 
 Commands  initialized (802), CPU time= 0.01 sec, 659 directives.
 Default parameters read. Elapsed time= 0.04 sec

 Checking input...
 Passed
1


                                         ***  PROGRAM SYSTEM MOLPRO  ***
                                       Copyright, TTI GmbH Stuttgart, 2015
                                    Version 2020.1 linked Oct  6 2020 12:04:11


 **********************************************************************************************************************************
 LABEL *   H2O aug-cc-pVTZ-F12 uks                                                       
  64 bit serial version                                                                  DATE: 12-May-21          TIME: 08:05:26  
 **********************************************************************************************************************************

 SHA1:             8c27446f6450a7499e38f603e13c65f775101d37
 **********************************************************************************************************************************

 Memory per process:       250 MW
 Total memory per node:    250 MW

 GA preallocation disabled
 GA check disabled

 Variable memory set to 250.0 MW


 SETTING BASIS          =    CC-PVTZ-F12
 SETTING ROH1           =         1.20000000                                  
 SETTING ROH2           =         1.15000000                                  
 SETTING AHOH           =       109.50000000                                  


 Recomputing integrals since basis changed


 Using spherical harmonics

 Library entry H      S cc-pVTZ-F12          selected for orbital group  1
 Library entry H      P cc-pVTZ-F12          selected for orbital group  1
 Library entry H      D cc-pVTZ-F12          selected for orbital group  1
 Library entry O      S cc-pVTZ-F12          selected for orbital group  2
 Library entry O      P cc-pVTZ-F12          selected for orbital group  2
 Library entry O      D cc-pVTZ-F12          selected for orbital group  2
 Library entry O      F cc-pVTZ-F12          selected for orbital group  2


 PROGRAM * SEWARD (Integral evaluation for generally contracted gaussian basis sets)     Author: Roland Lindh, 1990

 Geometry written to block  1 of record 700

 Orientation using atomic masses  
 Molecule type: Asymmetric top
 Symmetry elements: X
 Rotational constants:     188.5318261    271.7769746    615.5146607 GHz  (calculated with average atomic masses)

 Point group  Cs  



 ATOMIC COORDINATES

 NR  ATOM    CHARGE       X              Y              Z

   1  H       1.00    0.000000000    1.069996409   -1.904384334
   2  O       8.00    0.000000000   -0.142994206    0.011597691
   3  H       1.00    0.000000000    1.199802878    1.720289947

 Bond lengths in Bohr (Angstrom)

 1-2  2.267671349  2-3  2.173185043
     ( 1.200000000)     ( 1.150000000)

 Bond angles

  1-2-3  109.50000000

 NUCLEAR CHARGE:                   10
 NUMBER OF PRIMITIVE AOS:         114
 NUMBER OF SYMMETRY AOS:          103
 NUMBER OF CONTRACTIONS:           89   (   61A'  +   28A"  )
 NUMBER OF INNER CORE ORBITALS:     0   (    0A'  +    0A"  )
 NUMBER OF OUTER CORE ORBITALS:     1   (    1A'  +    0A"  )
 NUMBER OF VALENCE ORBITALS:        6   (    5A'  +    1A"  )


 NUCLEAR REPULSION ENERGY    7.48479096

 Eigenvalues of metric

         1 0.396E-03 0.609E-03 0.633E-03 0.826E-03 0.118E-02 0.191E-02 0.266E-02 0.378E-02
         2 0.709E-03 0.238E-01 0.306E-01 0.534E-01 0.864E-01 0.970E-01 0.182E+00 0.231E+00


 Contracted 2-electron integrals neglected if value below      1.0D-11
 AO integral compression algorithm  1   Integral accuracy      1.0D-11

     23.855 MB (compressed) written to integral file ( 55.0%)


 NUMBER OF SORTED TWO-ELECTRON INTEGRALS:    4174745.     BUFFER LENGTH:  32768
 NUMBER OF SEGMENTS:   1  SEGMENT LENGTH:    4174745      RECORD LENGTH: 524288

 Memory used in sort:       4.73 MW

 SORT1 READ     5370191. AND WROTE     3739815. INTEGRALS IN     11 RECORDS. CPU TIME:     0.04 SEC, REAL TIME:     0.04 SEC
 SORT2 READ     3739815. AND WROTE     4174745. INTEGRALS IN     91 RECORDS. CPU TIME:     0.06 SEC, REAL TIME:     0.07 SEC

 FILE SIZES:   FILE 1:    54.1 MBYTE,  FILE 4:    46.2 MBYTE,   TOTAL:    100.2 MBYTE

 OPERATOR DM      FOR CENTER  0  COORDINATES:    0.000000    0.000000    0.000000


 **********************************************************************************************************************************
 DATASETS  * FILE   NREC   LENGTH (MB)   RECORD NAMES
              1      19       47.86       500      610      700      900      950      970     1000      129      960     1100   
                                          VAR    BASINP    GEOM    SYMINP    ZMAT    AOBASIS   BASIS     P2S    ABASIS      S 
                                         1400     1410     1200     1210     1080     1600     1650     1300     1700   
                                           T        V       H0       H01     AOSYM     SMH    MOLCAS    ERIS     OPER   

 PROGRAMS   *        TOTAL       INT
 CPU TIMES  *         0.41      0.33
 REAL TIME  *         0.56 SEC
 DISK USED  *       100.53 MB
 **********************************************************************************************************************************


 PROGRAM * RHF-SCF (CLOSED SHELL)       Authors: W. Meyer, H.-J. Werner


 NUMBER OF ELECTRONS:       5+    5-
 CONVERGENCE THRESHOLDS:    1.00E-06 (Density)    1.00E-07 (Energy)
 MAX. NUMBER OF ITERATIONS:       60
 INTERPOLATION TYPE:            DIIS
 INTERPOLATION STEPS:              2 (START)      1 (STEP)
 LEVEL SHIFTS:                  0.00 (CLOSED)  0.00 (OPEN) 



 Orbital guess generated from atomic densities. Full valence occupancy:    6   1

 Molecular orbital dump at record        2100.2

 Initial occupancy:   4   1

 ITERATION    DDIFF          GRAD             ENERGY        2-EL.EN.            DIPOLE MOMENTS         DIIS   ORB.
    1      0.000D+00      0.000D+00       -75.93930328     75.548329    0.00000    1.36252   -0.13581    0    start
    2      0.000D+00      0.143D-01       -75.96570819     70.671039    0.00000    0.63349   -0.04773    1    diag
    3      0.153D-01      0.116D-01       -75.98850715     72.960283    0.00000    0.83635   -0.06876    2    diag
    4      0.657D-02      0.964D-03       -75.98893372     72.879646    0.00000    0.81786   -0.06184    3    diag
    5      0.954D-03      0.389D-03       -75.98901849     72.902024    0.00000    0.80832   -0.05825    4    diag
    6      0.490D-03      0.897D-04       -75.98902593     72.897530    0.00000    0.80505   -0.05692    5    diag
    7      0.156D-03      0.191D-04       -75.98902627     72.897662    0.00000    0.80435   -0.05659    6    diag
    8      0.371D-04      0.349D-05       -75.98902628     72.897640    0.00000    0.80425   -0.05655    7    diag
    9      0.611D-05      0.945D-06       -75.98902629     72.897606    0.00000    0.80423   -0.05654    8    diag
   10      0.180D-05      0.241D-06       -75.98902629     72.897619    0.00000    0.80423   -0.05654    9    orth
   11      0.448D-06      0.364D-07       -75.98902629     72.897618    0.00000    0.80423   -0.05654    0    orth

 Final occupancy:   4   1

 !RHF STATE  1.1 Energy               -75.989026285087
 Nuclear energy                         7.48479096
 One-electron energy                 -119.92262643
 Two-electron energy                   36.44880918
 Virial quotient                       -1.00787458
 !RHF STATE  1.1 Dipole moment          0.00000000     0.80422555    -0.05653512
 Dipole moment /Debye                   0.00000000     2.04400357    -0.14368853

 ELECTRON ORBITALS
 =================

  Orbital  Occupation    Energy     Coefficients
    1.1     2.00000   -20.59414     2 1s    1.00069
    2.1     2.00000    -1.26575     2 1s    0.91195     3 1s    0.26203
    3.1     2.00000    -0.62142     1 1s   -0.48740     2 2pz   0.69202     3 1s    0.54594
    4.1     2.00000    -0.53469     1 1s    0.38658     2 1s   -0.25474     2 2py   0.78495     3 1s    0.32478
    1.2     2.00000    -0.49650     2 2px   0.93724


 HOMO      1.2    -0.496499 =     -13.5104eV
 LUMO      5.1     0.088900 =       2.4191eV
 LUMO-HOMO         0.585399 =      15.9295eV


 **********************************************************************************************************************************
 DATASETS  * FILE   NREC   LENGTH (MB)   RECORD NAMES
              1      19       47.86       500      610      700      900      950      970     1000      129      960     1100   
                                          VAR    BASINP    GEOM    SYMINP    ZMAT    AOBASIS   BASIS     P2S    ABASIS      S 
                                         1400     1410     1200     1210     1080     1600     1650     1300     1700   
                                           T        V       H0       H01     AOSYM     SMH    MOLCAS    ERIS     OPER   

              2       4        2.86       700     1000      520     2100   
                                         GEOM     BASIS   MCVARS     RHF  

 PROGRAMS   *        TOTAL    HF-SCF       INT
 CPU TIMES  *         0.59      0.18      0.33
 REAL TIME  *         0.79 SEC
 DISK USED  *       100.53 MB
 **********************************************************************************************************************************
 SETTING ESCF           =       -75.98902629  AU                              


 PROGRAM * CCSD (Closed-shell coupled cluster)     Authors: C. Hampel, H.-J. Werner, 1991, M. Deegan, P.J. Knowles, 1992

                                  CCSD-F12 implementation by  H.-J. Werner, 2007

                   Density fitting integral evaluation by F.R. Manby, 2003,2007, G. Knizia, 2010


 Basis set AUG-CC-PVTZ/JKFIT generated.  Number of basis functions:   196 
 Basis set CC-PVTZ-F12/OPTRI generated.  Number of basis functions:   157 
 Basis set AUG-CC-PVTZ/MP2FIT generated. Number of basis functions:   198 

 Convergence thresholds:  THRVAR = 1.00D-12  THRDEN = 1.00D-08

 CCSD(T)     terms to be evaluated (factor= 1.000)


 Number of core orbitals:           1 (   1   0 )
 Number of closed-shell orbitals:   4 (   3   1 )
 Number of external orbitals:      84 (  57  27 )

 Molecular orbitals read from record     2100.2  Type=RHF/CANONICAL (state 1.1)

 MP2-F12 correlation treatment (H.-J. Werner, 2006)
 ==================================================

 Using MP2-F12 with ansatz 3C(FIX)

 Using projected zeroth-order Hamiltonian (+Z)

 FOCKRIB=T FOCKRIC=T FOCKRIP=T CABSP=T CABSA=T CABSK=T CABSF=T GBC=F EBC=F DMAT=T NOFIK=T NOPAO=1 SOLVE=-1  USEPAO=0
 EXCH_A= T EXCH_B= F EXCH_C= F EXCH_P= F

 Geminal basis:    OPTFULL  GEM_TYPE=SLATER  BETA=1.0  NGEM=6

 Optimizing Gaussian exponents for each gem_beta

 Geminal optimization for beta= 1.0000
 Weight function:   m=0, omega= 1.4646

 Augmented Hessian optimization of geminal fit. Trust ratio= 0.40000
 Convergence reached after   2 iterations. Final gradient= 7.80D-16, Step= 4.27D-06, Delta= 1.28D-09

 Alpha:                 0.19532     0.81920     2.85917     9.50073    35.69989   197.79328
 Coeff:                 0.27070     0.30552     0.18297     0.10986     0.06810     0.04224


 Symmetry turned off. Reference energy:        -75.989026285087

 All pairs explicitly correlated. Number of r12-pairs:           10

 Excluding core orbitals from MO domains

 AO(A)-basis ORBITAL           loaded. Number of functions:      89
 RI(R)-basis CC-PVTZ-F12/OPTRI loaded. Number of functions:     157
 DF-basis AUG-CC-PVTZ/JKFIT    loaded. Number of functions:     196

 Screening thresholds:   THRAO=  1.00D-10  THRMO=  1.00D-10  THRPROD=  1.00D-10
                         THRSW=  1.00D-07  THROV=  1.00D-12  THRAOF12= 1.00D-08

 CPU time for Fock operators                      0.45 sec

 Construction of ABS:
 Smallest eigenvalue of S          1.78E-03  (threshold= 1.00E-08)
 Ratio eigmin/eigmax               3.33E-04  (threshold= 1.00E-09)
 Smallest eigenvalue of S kept     1.78E-03  (threshold= 1.78E-03, 0 functions deleted, 157 kept)

 Construction of CABS:
 Smallest eigenvalue of S          5.77E-06  (threshold= 1.00E-08)
 Ratio eigmin/eigmax               5.77E-06  (threshold= 1.00E-09)
 Smallest eigenvalue of S kept     5.77E-06  (threshold= 5.77E-06, 0 functions deleted, 157 kept)

 CPU time for CABS singles                        0.00 sec

 CABS-singles contribution of  -0.00069242 patched into reference energy.
 New reference energy         -75.98971871

 AO(A)-basis ORBITAL           loaded. Number of functions:      89
 RI(R)-basis CC-PVTZ-F12/OPTRI loaded. Number of functions:     157
 DF-basis AUG-CC-PVTZ/MP2FIT   loaded. Number of functions:     198

 Screening thresholds:   THRAO=  1.00D-10  THRMO=  1.00D-10  THRPROD=  1.00D-10
                         THRSW=  1.00D-07  THROV=  1.00D-12  THRAOF12= 1.00D-08

 CPU time for 3-index integral evaluation         0.27 sec
 CPU time for fitting                             0.01 sec ( 8185.8 MFLOP/sec)
 CPU time for tilde quantities                    0.01 sec (10820.3 MFLOP/sec)
 CPU time for assembly                            0.01 sec (53512.5 MFLOP/sec)
 CPU time for tranop_f12                          0.02 sec (32596.5 MFLOP/sec)
 CPU time for f12 integrals (total)               0.68 sec, Elapsed time:      0.70 sec
 CPU time for f12 matrices (total)                0.00 sec, Elapsed time:      0.01 sec

 Diagonal F12 approximation with fixed coefficients:  TSING= 0.500,  TTRIP= 0.250 (scaled by -1/beta)

 DF-MP2-F12 energy corrections:
 ==============================
 Approx.                                    Singlet             Triplet             Total
 DF-MP2-F12/3*C(DX,FIX)                -0.024315557289     -0.002849187022     -0.027164744312
 DF-MP2-F12/3*C(FIX)                   -0.022786049620     -0.002608669208     -0.025394718829
 DF-MP2-F12/3C(FIX)                    -0.022688321605     -0.002696729360     -0.025385050965

 DF-MP2-F12 correlation energies:
 ================================
 Approx.                                    Singlet             Triplet             Ecorr            Total Energy
 DF-MP2                                -0.186373392557     -0.104918188356     -0.291291580912    -76.281010286798
 DF-MP2-F12/3*C(DX,FIX)                -0.210688949846     -0.107767375378     -0.318456325224    -76.308175031110
 DF-MP2-F12/3*C(FIX)                   -0.209159442177     -0.107526857564     -0.316686299741    -76.306405005627
 DF-MP2-F12/3C(FIX)                    -0.209061714162     -0.107614917716     -0.316676631878    -76.306395337764

 SCS-DF-MP2 energies (F_SING= 1.20000  F_TRIP= 0.62222  F_PARALLEL= 0.33333):
 ============================================================================
 SCS-DF-MP2                            -0.288930499378    -76.278649205264
 SCS-DF-MP2-F12/3*C(DX,FIX)            -0.319881995606    -76.309600701491
 SCS-DF-MP2-F12/3*C(FIX)               -0.317896930875    -76.307615636760
 SCS-DF-MP2-F12/3C(FIX)                -0.317834450240    -76.307553156125

 Symmetry restored.
 Symmetry transformation completed.

 Number of N-1 electron functions:               4
 Number of N-2 electron functions:              10
 Number of singly external CSFs:               198
 Number of doubly external CSFs:             29292
 Total number of CSFs:                       29491

 Length of J-op  integral file:               8.97 MB
 Length of K-op  integral file:              13.62 MB
 Length of 3-ext integral record:             0.00 MB

 Memory could be reduced to 2.14 Mwords without degradation in triples

 Integral transformation finished. Total CPU:   0.03 sec, npass=  1  Memory used:   0.62 MW

 Reference energy:                    -75.98971871

 Adding F12 terms to K(Cij), methodcc=6,  factor= 1.0

 ITER.      SQ.NORM     CORR.ENERGY   TOTAL ENERGY   ENERGY CHANGE        DEN1      VAR(S)    VAR(P)  DIIS     TIME  TIME/IT
   1      1.07700300    -0.28947813   -76.27919684     0.00186179     0.01085470  0.14D-02  0.19D-02  1  1     1.24     0.04
   2      1.08326028    -0.28937078   -76.27908949     0.00010735    -0.00687313  0.37D-04  0.27D-03  2  2     1.27     0.04
   3      1.08629341    -0.28970828   -76.27942699    -0.00033750    -0.00152291  0.23D-04  0.25D-04  3  3     1.31     0.04
   4      1.08793478    -0.28976837   -76.27948707    -0.00006009    -0.00080043  0.15D-05  0.21D-05  4  4     1.34     0.04
   5      1.08824536    -0.28977049   -76.27948920    -0.00000212    -0.00006784  0.54D-06  0.18D-06  5  5     1.38     0.04
   6      1.08833739    -0.28976920   -76.27948791     0.00000129    -0.00001600  0.68D-07  0.25D-07  6  6     1.41     0.04
   7      1.08836093    -0.28976911   -76.27948781     0.00000009    -0.00000443  0.10D-07  0.24D-08  6  1     1.44     0.04
   8      1.08836579    -0.28976942   -76.27948813    -0.00000032     0.00000006  0.15D-08  0.49D-09  6  2     1.47     0.04
   9      1.08836638    -0.28976953   -76.27948823    -0.00000010     0.00000040  0.16D-09  0.55D-10  6  4     1.50     0.04
  10      1.08836666    -0.28976956   -76.27948826    -0.00000003     0.00000006  0.12D-10  0.81D-11  6  3     1.53     0.04
  11      1.08836680    -0.28976955   -76.27948826     0.00000001    -0.00000014  0.21D-11  0.60D-12  6  5     1.56     0.04
  12      1.08836677    -0.28976956   -76.27948827    -0.00000001     0.00000000  0.21D-12  0.11D-12  6  6     1.60     0.04

 Norm of t1 vector:      0.05192173      S-energy:     0.00000001      T1 diagnostic:  0.01298043
                                                                       D1 diagnostic:  0.02549397

 Adding energy correction from Wij-K(Fij), methodcc=6  factor= 1.0

  CCSD correlation energy              -0.289769560813
  MP2-F12 correction (uncoupled)       -0.024274650550
  C*T doubles correction               -0.000818702427
  f12b correction                       0.004397355526


 Total CPU time for triples:      0.15 sec


 RESULTS
 =======

  Reference energy                    -75.989026285087
  F12 singles correction               -0.000692420799

 F12 singles corrections added to reference energy

  New reference energy                -75.989718705886

  F12a singlet correction              -0.022499970795
  F12a triplet correction              -0.002593382182
  F12a total correction                -0.025093352977

 F12a corrections for ansatz F12/3C(FIX) added to CCSD energy

  CCSD-F12a singlet pair energy        -0.223540481554
  CCSD-F12a triplet pair energy        -0.091322439828
  CCSD-F12a correlation energy         -0.314862913790

  Triples (T) contribution             -0.011177358006
  Total correlation energy             -0.326040271797

  CCSD-F12a total energy              -76.304581619676
  CCSD[T]-F12a energy                 -76.316280011211
  CCSD-T-F12a energy                  -76.315520747747
 !CCSD(T)-F12a total energy           -76.315758977682

 F12b corrections for ansatz F12/3C(FIX) added to CCSD(T)-F12a energy

  CCSD-F12b singlet pair energy        -0.219445034755
  CCSD-F12b triplet pair energy        -0.091020531101
  CCSD-F12b correlation energy         -0.310465558264

  Triples (T) contribution             -0.011177358006
  Total correlation energy             -0.321642916270

  CCSD-F12b total energy              -76.300184264150
  CCSD[T]-F12b energy                 -76.311882655685
  CCSD-T-F12b energy                  -76.311123392220
 !CCSD(T)-F12b total energy           -76.311361622156

 Timing summary (sec):

 STEP                 CPU(USER)    SYS     CPU(TOT)    WALL
 Transformation          0.04      0.01      0.05      0.04
 CCSD iterations         0.41      0.05      0.46      0.47
 Triples                 0.15      0.01      0.16      0.17
 MP2-F12                 1.15      0.03      1.18      1.19
 F12b energy             0.03      0.00      0.03      0.02

 Program statistics:

 Available memory in ccsd:               249999882
 Min. memory needed in ccsd:                145972
 Max. memory used in ccsd:                  166319
 Max. memory used in cckext:                248663 (13 integral passes)



 **********************************************************************************************************************************
 DATASETS  * FILE   NREC   LENGTH (MB)   RECORD NAMES
              1      20       53.36       500      610      700      900      950      970     1000      129      960     1100   
                                          VAR    BASINP    GEOM    SYMINP    ZMAT    AOBASIS   BASIS     P2S    ABASIS      S 
                                         1400     1410     1200     1210     1080     1600     1650     1300     1700     1380   
                                           T        V       H0       H01     AOSYM     SMH    MOLCAS    ERIS     OPER     JKOP   

              2       6        2.96       700     1000      520     2100     7360     7350   
                                         GEOM     BASIS   MCVARS     RHF    F12ABS    EF12   

 PROGRAMS   *        TOTAL   CCSD(T)    HF-SCF       INT
 CPU TIMES  *         2.40      1.81      0.18      0.33
 REAL TIME  *         2.70 SEC
 DISK USED  *       100.53 MB
 **********************************************************************************************************************************


 PROGRAM * OPT (Geometry optimization)     Authors: F. Eckert and H.-J. Werner


 BFGS update of hessian

 *** Long output written to logfile /mnt/harddata1/PESFitting/Adaptative_H2O_corr/geomopt_hfco_molpro_ccsdta/h2o.log ***


 Geometry optimization using default procedure for command CCSD(T)-F12

 Geometry written to block  1 of record 700

 Making model hessian for Z-matrix coordinates

 Entering Rational Function Geometry Optimization

 ITER.   ENERGY(OLD)    ENERGY(NEW)      DE          GRADMAX     GRADNORM    GRADRMS     STEPMAX     STEPLEN     STEPRMS   CPU-time
   1   -76.31136162   -76.34669196    -0.03533034  0.11224415  0.15530227  0.08966381  0.19597373  0.25289810  0.08429937     15.65
   2   -76.34669196   -76.36939809    -0.02270613  0.08918791  0.11946523  0.06897328  0.23929212  0.30000000  0.10000000     31.29
   3   -76.36939809   -76.36972574    -0.00032765  0.01423038  0.01982032  0.01144327  0.03858577  0.05718812  0.01906271     46.73
   4   -76.36972574   -76.36983562    -0.00010988  0.00946274  0.01072023  0.00618933  0.01675799  0.02037632  0.00679211     62.19
   5   -76.36983562   -76.36983934    -0.00000372  0.00109615  0.00116434  0.00067223  0.00515197  0.00524822  0.00174941     77.55
   6   -76.36983934   -76.36983962    -0.00000028  0.00029223  0.00030428  0.00017568  0.00177700  0.00177720  0.00059240     92.93

 END OF GEOMETRY OPTIMIZATION.

 Optimized variables
 ROH1=                0.95864303 ANGSTROM
 ROH2=                0.95858475 ANGSTROM
 AHOH=              104.40312491 DEGREE

 **********************************************************************************************************************************

 Current geometry (xyz format, in Angstrom)

    3
 CCSD(T)-F12/CC-PVTZ-F12  ENERGY=-76.36983962
 H          0.0000000000        0.5217234226       -0.7575399255
 O          0.0000000000       -0.0657425771        0.0000088620
 H          0.0000000000        0.5218325314        0.7573992553

 **********************************************************************************************************************************

 Geometry written to block  1 of record 700


 **********************************************************************************************************************************
 DATASETS  * FILE   NREC   LENGTH (MB)   RECORD NAMES
              1      20       53.88       500      610      700      900      950      970     1000      129      960     1100   
                                          VAR    BASINP    GEOM    SYMINP    ZMAT    AOBASIS   BASIS     P2S    ABASIS      S 
                                         1400     1410     1200     1210     1080     1600     1650     1300     1700     1380   
                                           T        V       H0       H01     AOSYM     SMH    MOLCAS    ERIS     OPER     JKOP   

              2       7        2.96       700     1000      520     2100     7360     7350     5600   
                                         GEOM     BASIS   MCVARS     RHF    F12ABS    EF12     GINFO   

 PROGRAMS   *        TOTAL      OPTG   CCSD(T)    HF-SCF       INT
 CPU TIMES  *        95.33     92.93      1.81      0.18      0.33
 REAL TIME  *       102.30 SEC
 DISK USED  *       103.76 MB
 **********************************************************************************************************************************
 SETTING ECCSDTA        =       -76.37411266  AU                              
 SETTING ECCSDTB        =       -76.36983962  AU                              

 CCSD(T)-F12/cc-pVTZ-F12//CCSD(T)-F12/cc-pVTZ-F12 energy=    -76.369839618296

   OPTG(CCSD(T))     CCSD(T)-F12          HF-SCF
    -76.36983962    -76.31136162    -75.98902629
 **********************************************************************************************************************************
 Molpro calculation terminated
